<?xml version="1.0" encoding="utf-8"?>
<!-- Generator: Adobe Illustrator 23.0.5, SVG Export Plug-In . SVG Version: 6.00 Build 0)  -->
<svg version="1.1" id="Capa_1" xmlns="http://www.w3.org/2000/svg" xmlns:xlink="http://www.w3.org/1999/xlink" x="0px" y="0px"
	 viewBox="0 0 100 100" style="enable-background:new 0 0 100 100;" xml:space="preserve">
<style type="text/css">
	.st0{fill:#FFFFFF;}
	.st1{fill:#313131;}
	.st2{fill:#91C508;}
	.st3{fill:#0183C1;}
	.st4{fill:#4D4D4F;}
	.st5{fill:url(#SVGID_1_);}
	.st6{fill:#4BA1D6;}
	.st7{fill:#C40044;}
	.st8{fill:#293E61;}
	.st9{fill:#A0A0A0;}
	.st10{fill:#F70901;}
	.st11{fill:#393436;}
	.st12{fill:#FCAF17;}
	.st13{fill:#808285;}
	.st14{fill:#BCBEC0;}
	.st15{fill:#606060;}
	.st16{fill:url(#SVGID_2_);}
	.st17{fill:url(#SVGID_3_);}
	.st18{clip-path:url(#SVGID_5_);}
	.st19{fill:url(#SVGID_6_);}
	.st20{fill:#ED1C24;}
	.st21{fill:#003344;}
	.st22{fill:#0FAFDF;}
	.st23{fill:#979797;}
	.st24{fill:#003082;}
	.st25{fill:#939598;}
	.st26{fill:#FFE603;}
	.st27{fill:#8C7100;}
	.st28{fill:#1F3D7D;}
	.st29{fill:#0B09B5;}
	.st30{fill:#FDBA1B;}
	.st31{fill:#8F8F8F;}
	.st32{fill:#565656;}
	.st33{opacity:0.6;clip-path:url(#SVGID_14_);}
	.st34{opacity:0.5;fill:#606060;}
	.st35{fill:#0073C0;}
	.st36{fill:#FF0326;}
	.st37{stroke:#000000;stroke-miterlimit:10;}
	.st38{opacity:0.9;fill:#606060;}
	.st39{opacity:0.5;fill:#2B2A2A;}
	.st40{fill:#FEFEFC;}
	.st41{fill:#1C1C1C;}
	.st42{fill:#6A9230;}
	.st43{fill:#303030;}
	.st44{fill:#999999;}
	.st45{fill:#222222;}
</style>
<circle class="st0" cx="51" cy="50" r="36"/>
<g>
	<path class="st45" d="M59.89,50.62c0,4.66-3.79,8.45-8.45,8.45c-4.66,0-8.45-3.79-8.45-8.45c0-4.66,3.79-8.45,8.45-8.45
		C56.1,42.17,59.89,45.96,59.89,50.62z"/>
	<path class="st45" d="M61.91,28.88H40.53c-6.1,0-11.05,4.96-11.05,11.05v21.38c0,6.1,4.95,11.05,11.05,11.05h21.38
		c6.09,0,11.05-4.95,11.05-11.05V39.93C72.96,33.84,68,28.88,61.91,28.88z M51.44,63.81c-7.27,0-13.19-5.92-13.19-13.19
		s5.92-13.19,13.19-13.19s13.19,5.92,13.19,13.19S58.71,63.81,51.44,63.81z M65.4,39.68c-1.73,0-3.14-1.4-3.14-3.14
		c0-1.73,1.41-3.14,3.14-3.14s3.14,1.41,3.14,3.14C68.54,38.28,67.13,39.68,65.4,39.68z"/>
	<path class="st45" d="M51,5.78c-24.85,0-45,20.15-45,45c0,24.86,20.15,45,45,45s45-20.14,45-45C96,25.93,75.85,5.78,51,5.78z
		 M78,61.31c0,8.87-7.22,16.09-16.09,16.09H40.53c-8.87,0-16.09-7.22-16.09-16.09V39.93c0-8.87,7.22-16.09,16.09-16.09h21.38
		c8.87,0,16.09,7.22,16.09,16.09V61.31z"/>
</g>
</svg>
