<?xml version="1.0" encoding="utf-8"?>
<!-- Generator: Adobe Illustrator 23.0.5, SVG Export Plug-In . SVG Version: 6.00 Build 0)  -->
<svg version="1.1" id="Capa_1" xmlns="http://www.w3.org/2000/svg" xmlns:xlink="http://www.w3.org/1999/xlink" x="0px" y="0px"
	 viewBox="0 0 425 160" style="enable-background:new 0 0 425 160;" xml:space="preserve">
<style type="text/css">
	.st0{fill:#FFFFFF;}
	.st1{fill:#91C508;}
	.st2{fill:#313131;}
	.st3{fill:#0183C1;}
	.st4{fill:#4D4D4F;}
	.st5{fill:url(#SVGID_1_);}
	.st6{fill:#4BA1D6;}
	.st7{fill:#C40044;}
	.st8{fill:#293E61;}
	.st9{fill:#A0A0A0;}
	.st10{fill:#F70901;}
	.st11{fill:#393436;}
	.st12{fill:#FCAF17;}
	.st13{fill:#808285;}
	.st14{fill:#BCBEC0;}
	.st15{fill:#606060;}
	.st16{fill:url(#SVGID_2_);}
	.st17{fill:url(#SVGID_3_);}
	.st18{clip-path:url(#SVGID_5_);}
	.st19{fill:url(#SVGID_6_);}
	.st20{fill:#ED1C24;}
	.st21{fill:#003344;}
	.st22{fill:#0B09B5;}
	.st23{fill:#FDBA1B;}
	.st24{fill:#8F8F8F;}
	.st25{fill:#0FAFDF;}
	.st26{fill:#979797;}
	.st27{fill:#003082;}
	.st28{fill:#939598;}
	.st29{fill:#FFE603;}
	.st30{fill:#8C7100;}
	.st31{fill:#1F3D7D;}
	.st32{fill:#565656;}
	.st33{opacity:0.6;clip-path:url(#SVGID_14_);}
	.st34{opacity:0.5;fill:#606060;}
	.st35{fill:#0073C0;}
	.st36{fill:#FF0326;}
	.st37{stroke:#000000;stroke-miterlimit:10;}
</style>
<g>
	<path class="st15" d="M140.93,27.42c-6.79,0.05-13.49-0.62-20.04-2.44c-15.22-4.25-29.33-10.66-41.21-21.4
		c-0.51-0.46-1.87-0.49-2.54-0.15c-1.02,0.53-1.72,1.64-2.67,2.37c-6.56,5.05-13.6,9.28-21.17,12.7C41.1,24,28.34,26.99,14.69,27.57
		c-0.41-0.03-1.11-0.13-1.82-0.14c-1.57-0.01-2.23,0.84-1.88,2.33c1.65,7.08,3.15,14.21,5.06,21.23
		c5.12,18.85,12.1,36.99,21.88,53.93c10.41,18.04,22.85,34.54,38.46,48.5c1.45,1.29,2.59,1.29,3.86,0.14
		c1.52-1.37,2.96-2.84,4.41-4.3c4.79-4.84,9.77-9.51,14.31-14.58c7.19-8.01,12.9-17.08,18.29-26.38
		c9.84-16.99,16.73-35.12,21.04-54.22c1.83-8.14,3.14-16.39,4.65-24.6C143.22,27.95,142.22,27.41,140.93,27.42z M140.41,36.69
		c-2.46,14.97-5.98,29.67-11.39,43.86c-7.45,19.54-17.41,37.7-31.18,53.53c-5.39,6.2-11.52,11.75-17.28,17.63
		c-1.46,1.48-2.55,1.48-4.2,0c-13.38-12.04-24.31-26.09-33.74-41.3C28.85,88.23,20.12,64,14.32,38.64
		c-0.72-3.15-1.34-6.32-2.04-9.63c25.05-0.4,46.87-9.04,65.96-24.65c18.39,14.82,38.9,24.13,63.17,24.7
		C141.08,31.59,140.82,34.16,140.41,36.69z"/>
	<path class="st15" d="M75.49,7.47c-0.42,0.46-0.85,0.93-1.34,1.32c-8.01,6.47-17.1,11.01-26.64,14.7
		c-9.22,3.57-18.82,5.43-28.7,5.86c-0.99,0-1.99-0.03-2.98,0.01c-1.94,0.07-2.5,0.87-2.08,2.83c0.13,0.62,0.15,1.26,0.28,1.88
		c3.86,17.99,9.23,35.49,16.77,52.32c4.44,9.92,9.49,19.47,15.5,28.52c8.74,13.16,18.54,25.41,30.43,35.9
		c1.24,1.09,2.2,1.09,3.3,0.05c1.34-1.26,2.66-2.55,3.98-3.84c6.87-6.66,13.78-13.31,19.45-21.08
		c14.42-19.75,25.04-41.34,30.96-65.12c1.83-7.36,3.21-14.84,4.72-22.28c0.47-2.34,0.69-4.74,1.03-7.11
		c0.2-1.41-0.31-2.08-1.82-2.11c-2.26-0.05-4.51-0.34-6.77-0.41c-9.72-0.31-18.69-3.42-27.47-7.25
		c-8.59-3.76-16.69-8.34-23.77-14.59C78.43,5.38,77.22,5.55,75.49,7.47z M79.55,7.32c12.86,11.35,27.93,18.32,44.6,21.78
		c4.16,0.86,8.56,0.67,12.86,0.78c1.61,0.04,2.52,0.28,2.5,2.16c-1.56,8.03-2.9,16.11-4.73,24.08c-5.55,24.22-15.7,46.4-29.99,66.71
		c-5.41,7.7-11.9,14.42-18.59,20.97c-1.93,1.89-3.81,3.83-5.74,5.71c-1.34,1.3-2.43,1.52-4.11,0
		c-14.24-12.86-25.7-27.94-35.31-44.42c-11.68-20.01-19.31-41.63-24.6-64.12c-0.73-3.09-1.3-6.22-1.81-9.35
		c-0.07-0.42,0.68-1.4,1.06-1.4c12.1-0.05,23.77-2.22,34.94-6.93C60.19,19.24,69.26,14.38,77,7.31C77.87,6.52,78.55,6.44,79.55,7.32
		z"/>
	<path class="st15" d="M32.75,48.05c2.71,12.6,6.47,24.86,11.75,36.65c2.95,6.59,6.31,12.94,10.24,18.99v0.25h0.16
		c0.16,0.24,0.3,0.49,0.46,0.73c6.12,9.22,12.99,17.8,21.31,25.15c0.87,0.77,1.54,0.77,2.31,0.04c0.94-0.89,1.86-1.79,2.79-2.69
		c2.24-2.17,4.48-4.34,6.64-6.59c1.14-0.99,2.37-2.38,3.57-3.91c1.19-1.38,2.33-2.79,3.41-4.27c10.02-13.72,17.41-28.71,21.58-45.21
		h0.11v-0.4c1.28-5.16,2.25-10.39,3.3-15.6c0.33-1.64,0.48-3.32,0.72-4.98c0.14-0.99-0.22-1.46-1.28-1.48
		c-1.58-0.03-3.16-0.24-4.74-0.29c-6.81-0.22-13.09-2.39-19.24-5.08c-2.86-1.25-5.64-2.64-8.3-4.21l0.04-0.05l-0.5-0.22
		c-2.78-1.67-5.42-3.56-7.89-5.74c-0.02-0.02-0.04-0.03-0.05-0.04l0-0.02l-0.1-0.07c-0.01,0-0.04-0.03-0.05-0.03
		c-1.23-0.99-2.05-0.84-3.2,0.44c-0.2,0.22-0.41,0.41-0.63,0.62l-0.1,0.07l0,0.02c-0.07,0.07-0.14,0.15-0.22,0.21
		c-1.15,0.92-2.33,1.78-3.53,2.6l-0.03-0.07l-0.34,0.33c-2.81,1.88-5.76,3.49-8.82,4.91l-0.14,0.03l0.03,0.02
		c-1.91,0.89-3.85,1.71-5.83,2.48c-6.46,2.5-13.18,3.8-20.1,4.11c-0.7,0-1.39-0.02-2.09,0c-1.36,0.05-1.75,0.61-1.45,1.98
		C32.65,47.16,32.66,47.61,32.75,48.05z M60.06,39.75h0.44l3.52,2.19c-0.21,0.03-0.39,0.11-0.52,0.23
		c-2.14-1.29-3.25-1.94-3.82-2.25C59.8,39.86,59.93,39.81,60.06,39.75z M63.22,38.29l0.76-0.17l3.5,3.35l-0.06,0.05l-4.37-3.14
		C63.11,38.34,63.17,38.32,63.22,38.29z M64.24,37.77c0.3-0.15,0.61-0.31,0.91-0.47l3.25,3.27c-0.21,0.19-0.43,0.37-0.63,0.58
		L64.24,37.77z M65.94,36.89l2.94,3.26c-0.05,0.04-0.1,0.1-0.16,0.14l-3.16-3.17l0.04-0.04C65.72,37.02,65.83,36.95,65.94,36.89z
		 M68.71,35.31l2.76,3.35l-0.4,0.17l-2.88-3.2C68.37,35.52,68.54,35.41,68.71,35.31z M71.2,33.72l1.96,4.42l-0.25,0.06l-2.19-4.15
		C70.88,33.94,71.04,33.82,71.2,33.72z M72.53,38.39c-0.2,0.05-0.4,0.09-0.6,0.15l-2.85-3.46c0.43-0.26,0.86-0.52,1.29-0.8
		L72.53,38.39z M70.69,39.04c-0.51,0.24-1,0.53-1.47,0.86l-2.9-3.22c0.5-0.27,1-0.55,1.49-0.84L70.69,39.04z M67.92,41.66l0.2-0.16
		l-0.04-0.04c0.25-0.27,0.52-0.5,0.79-0.73l0.55-0.45c1.95-1.41,4.41-2.05,7.01-1.67c0.26,0.04,0.51,0.11,0.76,0.17
		c0.06,0.2,0.08,0.63-0.53,1.02c-0.92,0.6-1.93,1.47-1.6,2.9l0.03,0.13l0.04,0.01v1.1c2.76-0.38,4.72,0.45,5.18,0.67l-0.01,0.42
		c-0.06,0.35-0.11,0.69-0.16,0.96l0-0.01c0,0-2.64-0.87-4.32-0.54l-0.7,0.03v2.25c0.64-0.08,1.24-0.1,1.79-0.1
		c-0.06,1.11-0.13,2.58-0.16,3.05L66.51,48.3l0.21-0.01l-0.24-4.47C66.87,43.01,67.36,42.29,67.92,41.66z M73.41,32.14l1.6,5.79
		l-0.51,0.02l-1.7-5.35C73,32.45,73.2,32.29,73.41,32.14z M75.91,30.11l0.22,7.7l-0.18-0.07l-0.44-7.28
		C75.65,30.34,75.78,30.22,75.91,30.11z M77.52,38.01l0.49-9.07c0.19,0.06,0.39,0.17,0.61,0.37c0.02,0.02,0.05,0.04,0.07,0.06
		l-0.54,8.68L78,38.13L77.52,38.01z M82.01,32.09c0.06,0.05,0.12,0.09,0.19,0.14l-2.81,6.56l-0.07-0.03l2.35-6.85L82.01,32.09z
		 M82.55,32.48c0.45,0.34,0.91,0.65,1.37,0.98c-0.36,0.48-1.23,1.9-3.69,5.97l-0.03,0.05c-0.17-0.1-0.34-0.22-0.52-0.31L82.55,32.48
		z M86.79,35.39l-4.4,5.4l-0.25-0.24l4.27-5.4C86.54,35.24,86.67,35.32,86.79,35.39z M81.65,40.5c-0.14-0.12-0.28-0.25-0.43-0.36
		l3.77-5.92c0.35,0.24,0.71,0.49,1.06,0.72L81.65,40.5z M84.64,33.97l-3.63,5.7l-0.3-0.2c1.28-2.12,3.1-5.1,3.55-5.77l0.07,0.04
		C84.43,33.82,84.53,33.9,84.64,33.97z M84.6,46.55c0.3,1.85-0.21,3.77-1.45,5.58l-2.5-0.58l0.1-6.47c0.05-0.31,0.1-0.68,0.17-1.11
		l-0.15-0.02l0-0.01l-0.04,0l0-0.16c0-0.12,0.07-3.05-1.71-3.97c-0.76-0.39-1.05-0.69-1.16-0.89C81.41,39.95,83.99,42.82,84.6,46.55
		z M89.63,37.11l-5.72,5.53l-0.32-0.48l5.55-5.34C89.3,36.92,89.46,37.02,89.63,37.11z M85.05,48.38l3.51-0.11l0,0
		c0,0.1-0.52,0.02-0.52,0.02v0.67h-0.36v0.62h-0.37l-0.06,0.45h-0.52v0.27l-2.04-0.14l-0.06,0C84.85,49.56,84.98,48.97,85.05,48.38z
		 M85.53,47.26v-0.29l13.1-4.41l0.07,0.35L85.53,47.26z M85.86,47.76l2.75-0.12l-0.17,0.12c0,0,0.01,0.04,0.02,0.08l-2.73,0.09
		L85.86,47.76z M88.89,47.63l21.07-0.9v0.44L88.9,47.83C88.89,47.75,88.89,47.69,88.89,47.63z M90.4,50.98l14.28,0.99v0.66
		l-14.28-1.3C90.4,51.21,90.4,51.09,90.4,50.98z M109.45,52.31l7.69,0.54l0.15,0.94l-7.84-0.71V52.31z M76.77,66.77v-7.24l3.15,0.29
		v6.95H76.77z M49.68,44.86l3.37,0.78v3.69l-3.55-0.6C49.55,46.71,49.61,45.3,49.68,44.86z M49.08,48.65l-5.57-0.94l0.09-2.87
		c0.57-0.09,2.39-0.38,3.4-0.6l2.31,0.53C49.21,45.36,49.14,46.74,49.08,48.65z M75.46,42.46c-0.14-0.86,0.3-1.56,1.45-2.31
		c0.41-0.27,0.61-0.57,0.69-0.85c0.24,0.29,0.65,0.59,1.22,0.88c1.2,0.62,1.43,2.4,1.47,3.19c-0.53-0.31-2.58-1.38-4.74-0.89
		L75.46,42.46z M84.15,51.27l2.51,0.15l0.08,0.01v1.52l-3.15-0.73C83.79,51.91,83.98,51.59,84.15,51.27z M111.69,62.36l-1.17-0.11
		l0.1-2.79l1.07,0.18V62.36z M110.13,61.26v-0.42h-0.54v0.54h0.53l-0.03,0.83l-1.01-0.09l0.02-0.79h0.34v-2.07l0.75,0.13
		L110.13,61.26z M58.22,50.62l3.13,0.53v6.5l-3.13-0.29V50.62z M57.8,57.32l-4.32-0.4v-7.1l4.32,0.73V57.32z M61.77,51.22l3.58,0.6
		v6.2l-3.58-0.33V51.22z M65.78,51.9l3.3,0.56l0.09,5.93l-3.39-0.32V51.9z M69.51,52.53l3.29,0.56v5.64l-3.21-0.3L69.51,52.53z
		 M73.23,53.15l3.11,0.53v5.38l-3.11-0.29V53.15z M76.77,53.75l3.15,0.53v5.11l-3.15-0.29V53.75z M80.34,54.35L82,54.63v4.95
		l-1.66-0.15V54.35z M82.42,54.7l2.11,0.36l0.06,4.77l-2.16-0.2V54.7z M84.95,55.13l1.87,0.31v4.59l-1.81-0.17L84.95,55.13z
		 M86.82,53.41v1.61l-1.87-0.32l-0.02-1.73L86.82,53.41z M87.25,53.51l1.64,0.38v1.48l-1.64-0.28V53.51z M87.25,55.52l1.64,0.28
		v4.43l-1.64-0.15V55.52z M89.31,55.87l1.87,0.32l-0.09,4.25l-1.78-0.17V55.87z M91.61,56.25l1.4,0.24v4.12l-1.49-0.14L91.61,56.25z
		 M93.43,56.56l2.13,0.36v3.93l-2.13-0.2V56.56z M95.99,56.99l1.43,0.24v3.79l-1.43-0.13V56.99z M97.85,57.31l1.43,0.24v3.65
		l-1.43-0.13V57.31z M99.7,57.62l1.51,0.26v3.51l-1.51-0.14V57.62z M101.64,60.71l0.51,0.04v-0.92c0-0.17-0.19-0.31-0.41-0.31
		c-0.04,0-0.06,0.02-0.1,0.03v-1.61l0.93,0.16v3.41l-0.93-0.09V60.71z M103,60.82h0.66V60H103v-1.83l0.92,0.15v3.3L103,61.55V60.82z
		 M104.35,58.4l0.33,0.06v2.03h-0.25v0.54h0.25v0.31h0.95v0.46l-1.28-0.12V58.4z M108.7,60.41h-0.72v0.49h-0.68l0.08-1.99l1.35,0.23
		L108.7,60.41z M106.88,60.9h-0.13v-0.49h-0.54v0.49h-0.16v-2.21l0.91,0.15L106.88,60.9z M105.63,60.9h-0.52v-2.37l0.52,0.09V60.9z
		 M106.05,61.33h0.81l-0.02,0.58l-0.79-0.07V61.33z M107.29,61.33h0.7v0.33h0.68l-0.01,0.42l-1.39-0.13L107.29,61.33z M108.75,58.71
		l-1.35-0.23l0.01-0.33l1.35,0.31L108.75,58.71z M106.98,58.41l-0.93-0.16v-0.42l0.94,0.22L106.98,58.41z M105.63,58.18l-0.52-0.09
		v-0.48l0.52,0.12V58.18z M104.68,58.02l-0.33-0.06v-0.53l0.33,0.08V58.02z M103.92,57.9L103,57.74v-0.61l0.92,0.21V57.9z
		 M102.58,57.67l-0.93-0.16v-0.69l0.93,0.22V57.67z M101.21,56.77v0.67l-1.51-0.25v-0.81l1.71,0.39H101.21z M99.28,57.11l-1.43-0.24
		v-0.93l1.43,0.33V57.11z M97.42,56.8l-1.43-0.24v-1.04l1.43,0.33V56.8z M95.57,56.49l-2.13-0.36v-1.2l2.13,0.49V56.49z
		 M93.01,56.06l-1.39-0.23l0.03-1.3l1.36,0.31V56.06z M91.19,55.75l-1.88-0.32v-1.45l1.91,0.44L91.19,55.75z M86.73,51l-0.04,0
		l-2-0.12l0.13-0.29l1.92,0.13V51z M84.62,52.9l-0.12,0l0.02,1.72l-2.1-0.35V52.4L84.62,52.9z M82,54.2l-1.66-0.28v-2L82,52.3V54.2z
		 M77.7,50.67c0.03-0.31,0.12-0.98,0.48-1.32c0.14-0.14,0.31-0.2,0.52-0.19c0.16,0.01,0.29,0.07,0.4,0.19
		c0.34,0.39,0.4,1.27,0.38,1.8c-0.04-0.01-0.08-0.01-0.12-0.02L77.7,50.67z M80.29,46.97l-0.02-0.12c0.01,0,0.01,0,0.02,0
		L80.29,46.97z M77.36,47.61c1.48,0.05,2.54,0.31,2.91,0.42l-0.05,3.24c-0.11-0.02-0.22-0.04-0.32-0.05c0.02-0.48,0-1.6-0.49-2.15
		c-0.19-0.21-0.43-0.33-0.71-0.34c-0.32-0.01-0.6,0.09-0.83,0.31c-0.5,0.48-0.59,1.38-0.61,1.68c-0.02-0.01-0.05-0.01-0.07-0.02
		C77.23,50.24,77.31,48.74,77.36,47.61z M79.91,51.82v2.03l-3.15-0.53v-2.22L79.91,51.82z M76.34,53.25l-3.11-0.53v-2.44L76.34,51
		V53.25z M72.8,52.65l-3.3-0.56l-0.04-2.68l3.34,0.77V52.65z M69.03,49.31l0.04,2.71l-3.3-0.56v-2.9L69.03,49.31z M65.35,51.39
		l-3.58-0.6v-3.15l3.58,0.82V51.39z M61.35,50.72l-3.13-0.53v-3.37l3.13,0.72V50.72z M57.8,50.12l-4.32-0.73v-3.66l4.32,0.99V50.12z
		 M53.05,49.75v7.13l-3.66-0.34c0.02-2.74,0.06-5.32,0.1-7.39L53.05,49.75z M53.05,57.31v9.46h-3.7c0-2.99,0.01-6.48,0.04-9.8
		L53.05,57.31z M53.48,57.35l4.32,0.4v9.02h-4.32V57.35z M58.22,57.79l3.13,0.29v8.68h-3.13V57.79z M61.77,58.12l3.58,0.33v8.31
		h-3.58V58.12z M65.78,58.5l3.39,0.32l0.12,7.95h-3.51V58.5z M69.6,58.85l3.2,0.3v7.61h-3.09L69.6,58.85z M73.23,59.19l3.11,0.29
		v7.28h-3.11V59.19z M80.34,59.86L82,60.01v6.75h-1.66V59.86z M82.42,60.05l2.17,0.2l0.08,6.51h-2.25V60.05z M85.02,60.29l1.8,0.17
		v6.3H85.1L85.02,60.29z M87.25,60.5l1.64,0.15v6.11h-1.64V60.5z M89.31,60.7l1.78,0.17l-0.12,5.9h-1.65V60.7z M91.51,60.9l1.5,0.14
		v5.73h-1.62L91.51,60.9z M93.43,61.08l2.13,0.2v5.49h-2.13V61.08z M95.99,61.32l1.43,0.13v5.31h-1.43V61.32z M97.85,61.49
		l1.43,0.13v5.14h-1.43V61.49z M99.7,61.67l1.51,0.14v4.96H99.7V61.67z M101.64,64.76l0.41,0.03v-0.77c0-0.14-0.14-0.26-0.31-0.26
		c-0.04,0-0.07,0.02-0.1,0.03v-1.95l0.93,0.09v4.83h-0.93V64.76z M103,64.67l0.66,0.05v-0.77c0-0.14-0.16-0.26-0.36-0.26
		c-0.14,0-0.24,0.07-0.3,0.16v-1.87l0.92,0.09v4.71H103V64.67z M104.35,62.1l1.28,0.12v4.55h-1.28V62.1z M106.05,62.26l0.78,0.07
		l-0.06,1.64c-0.03-0.11-0.14-0.2-0.28-0.2c-0.17,0-0.31,0.12-0.31,0.26v0.72l0.56,0.05l-0.08,1.97h-0.61V62.26z M107.25,62.37
		l1.39,0.13l-0.12,4.26h-1.44L107.25,62.37z M109.07,62.54l1.01,0.09l-0.15,4.13h-0.97L109.07,62.54z M110.5,62.68l1.19,0.11v3.98
		h-1.34L110.5,62.68z M110.64,59.03l0.01-0.14l0.94,0.22l0.02,0.08L110.64,59.03z M110.22,58.96l-0.77-0.13v-0.21l0.77,0.18
		L110.22,58.96z M109.02,58.08l-2.68-0.62l0.29,0.03l0.05-0.49h0.86V56.1h-0.77l0.51-5.3h1.74V58.08z M106.21,57.43l-1.1-0.25v-0.18
		h0.72V56.1h-0.72v-5.3h1.75L106.21,57.43z M90.4,51.76l14.28,1.3v4.02l-4.98-1.15v-0.07h-0.28L90.4,53.8
		C90.4,53.48,90.4,52.57,90.4,51.76z M78.11,38.16l0.05-0.08l-0.01,0.09L78.11,38.16z M63.39,43.4c0-0.01,0.11-1.05,0.75-1.05
		c0.66,0,0.91,0.98,0.91,0.99l0.04,0.17l0.95-0.03l0.01,0.24c-0.01,0.01-0.01,0.02-0.02,0.03l0.02,0.01l0.24,4.48l-1.59-0.37
		l0.31,0.05v-2.4c0-0.48-0.4-0.88-0.88-0.88c-0.48,0-0.88,0.4-0.88,0.88v2.02l-1.48-0.34v-3.4l1.6-0.24L63.39,43.4z M65.24,42.7
		l0.58,0.36l-0.41,0.01C65.38,42.98,65.32,42.84,65.24,42.7z M61.35,43.93l-6.89-1.8l1.05-0.3l5.84,1.77V43.93z M61.35,44.37v2.74
		l-13.9-3.2c2.02-0.43,4.01-0.96,5.99-1.6L61.35,44.37z M43.49,48.14l5.58,0.94c-0.05,2.05-0.09,4.63-0.11,7.42l-5.71-0.53
		L43.49,48.14z M43.24,56.39l5.72,0.53c-0.02,3.18-0.03,6.6-0.03,9.84h-6L43.24,56.39z M69.29,67.19l0,0.02l0.43-0.01l0-0.02h3.08
		v0.02h0.43v-0.02h3.62l0.12,12.39l-14.19,0.1c0.33-0.62,0.6-1.57,0.57-2.53c-0.01-0.32-0.11-0.67-0.24-1.01
		c0.04-0.02,0.06-0.06,0.1-0.08c0.86-0.36,1.19-1.22,1.14-1.91c-0.06-0.73-0.51-1.28-1.17-1.43c-1.04-0.25-1.46-0.14-1.62,0.01
		c-0.06,0.02-0.14,0.05-0.22,0.13c-0.2,0.17-0.37,0.49-0.51,0.94c-0.86-0.4-1.93-0.6-3.2-0.41c0,0-1.76,0.44-1.1,1.59
		c0.66,1.15,0.96,1.15,3.37,0.99c0.22-0.02,0.4-0.01,0.58-0.02c-0.02,0.29-0.04,0.6-0.06,0.93c-0.02,0.46-0.03,0.85-0.05,1.19
		c-0.77,0.58-1.33,1.04-1.57,1.63l-15.91,0.11c-1.68-4.14-3.18-8.35-4.53-12.62h4.13H69.29z M77.08,91.12l-15.42,0.13v-0.01
		l-1.15,0.02c-0.05-0.08-0.15-0.2-0.27-0.35c0.06,0.01,0.12,0.03,0.18,0.04c0.11,0.02,0.24-0.05,0.37-0.06
		c0.06-0.01,0.14-0.03,0.19,0c0.52,0.33,1.04,0.29,1.54-0.03c0.17-0.11,0.34-0.18,0.54-0.21c0.32-0.04,0.6-0.18,0.73-0.5
		c0.04-0.09,0.05-0.19,0.08-0.29c0.68,0.11,1.21-0.09,1.49-0.75c0.81-0.03,1.28-0.69,1.07-1.5c0.45-0.31,0.9-0.63,1.36-0.93
		l0.03,0.05c0.01-0.01,0.1-0.06,0.21-0.19c0.04,0.78,0.23,1.17,0.53,1.37c0.05-0.13,0.1-0.26,0.15-0.39c0.26,0.15,0.55,0.1,0.68,0.1
		h0.06l-0.01,0.18l7.64,1.16L77.08,91.12z M60.84,76.9c0.01-0.35,0.04-0.64,0.06-0.93c1.39,0.1,1.32,0.74,0.08,1.65
		c-0.06,0.04-0.11,0.08-0.17,0.13C60.82,77.49,60.83,77.22,60.84,76.9z M62.94,75.73c-0.35-0.66-0.94-1.28-1.72-1.74
		c0.2-0.7,0.42-0.84,0.46-0.86l0.15,0.02l0.04-0.12c0.06-0.03,0.34-0.11,1.22,0.09c0.48,0.11,0.8,0.51,0.84,1.05
		c0.04,0.54-0.21,1.21-0.87,1.48C63,75.68,62.97,75.71,62.94,75.73z M69.28,84.16c-0.12-0.37-0.26-0.74-0.45-1.09
		c-0.22-0.47-0.43-0.85-0.56-1.07c1.94-0.52,7.56-0.59,8.72-0.6l0.07,7.11l-7.19-1.09C69.9,86.24,69.62,85.11,69.28,84.16z
		 M67.87,81.67l-0.25,0.09l0.13,0.2c-0.04,0.02-0.07,0.04-0.11,0.06c-0.12-0.14-0.25-0.28-0.35-0.43c-0.12,0.13-0.2,0.27-0.24,0.35
		c-1.18-1.23-2.7-1.66-2.72-1.67l-0.03,0.1c0.02,0.01,1.63,0.47,2.8,1.79c0.03,0.04,0.09,0.11,0.13,0.18
		c-0.05,0.06-0.08,0.13-0.06,0.2c0.05,0.32,1.11,1.4,1.04,3.27c-0.04,0.16-0.09,0.31-0.15,0.41c0,0.01-0.01,0.01-0.01,0.02
		c-0.15,0.26-0.31,0.36-0.31,0.36l0,0c-0.44,0.29-0.87,0.58-1.3,0.87c-0.04,0.03-0.07,0.08-0.11,0.12
		c-0.03-0.03-0.07-0.05-0.08-0.09c-0.1-0.53-0.43-0.91-0.77-1.29c-0.2-0.22-0.4-0.43-0.61-0.66c0.49-0.17,0.92-0.38,1.1-0.91
		c-0.04,0.01-0.06,0.01-0.07,0.02c-0.27,0.34-0.65,0.48-1.06,0.57c-0.24,0.06-0.31,0.03-0.43-0.21c0.47-0.1,0.88-0.27,1.09-0.77
		c-0.04,0-0.05,0-0.06,0.01c-0.03,0.02-0.06,0.04-0.09,0.07c-0.28,0.23-0.58,0.42-0.95,0.46c-0.12,0.01-0.2,0-0.28-0.11
		c-0.51-0.69-1.11-1.28-1.88-1.68c-0.01-0.01-0.02-0.03-0.03-0.05c0.4-0.4,0.87-0.75,1.04-1.34c-0.32,0.41-0.66,0.79-1.2,0.96
		c0.11-0.39,0.11-0.76-0.07-1.11c-0.02,0.15-0.02,0.3-0.02,0.46c-0.02,0.43-0.2,0.77-0.54,1.03c-0.11,0.09-0.2,0.09-0.29-0.05
		c-0.06-0.09-0.13-0.17-0.2-0.25c-0.03,0.1-0.03,0.18-0.01,0.25c0.06,0.2,0.01,0.36-0.12,0.53c-0.23,0.28-0.44,0.58-0.65,0.88
		c-0.46,0.66-1.16,0.54-1.61,0.13c-0.08-0.07-0.09-0.2-0.14-0.3c0.02-0.01,0.03-0.01,0.05-0.02c0.04,0.06,0.08,0.13,0.13,0.17
		c0.27,0.18,0.81,0.03,0.94-0.27c0.06-0.15,0.11-0.3,0.14-0.46c0.05-0.28-0.08-0.41-0.36-0.39c-0.11,0.01-0.22,0.04-0.35,0.06
		c0.02-0.06,0.02-0.09,0.03-0.13c0.23-0.93,0.82-1.62,1.5-2.25c0.42-0.39,0.9-0.57,1.43-0.55c0.01,0.01,0.02,0.01,0.03,0.01
		c0.08,0.07,0.18,0.05,0.28,0.01c0.57,0.1,1.13,0.21,1.7,0.32c0-0.02,0-0.05-0.01-0.07c-0.53-0.1-1.07-0.2-1.61-0.3
		c0.06-0.04,0.12-0.1,0.18-0.17l0.63,0c0.26,0.08,0.51,0.17,0.77,0.24c0-0.01-0.33-0.12-0.66-0.24l13.74-0.1l0.01,0.97
		C75.76,80.98,69.6,81.04,67.87,81.67z M59.15,90.03c0,0.02,0,0.03,0,0.05c-0.04-0.01-0.09-0.03-0.13-0.04
		c0.02-0.02,0.04-0.03,0.06-0.06c0.02-0.04,0.04-0.07,0.1-0.15C59.16,89.94,59.15,89.98,59.15,90.03z M59.22,90.1
		c0.03-0.18,0.08-0.36,0.13-0.54c0.02-0.06,0.04-0.12,0.05-0.19c-0.02-0.01-0.03-0.02-0.05-0.02c-0.12,0.2-0.23,0.4-0.35,0.6
		c-0.02,0.04-0.05,0.04-0.07,0.07c-0.15-0.03-0.3-0.03-0.46,0.01c0,0-0.01,0.01-0.02,0.03c-0.35-0.18-0.64-0.42-0.73-0.85
		c-0.03-0.18,0.02-0.3,0.16-0.44c0.18-0.18,0.34-0.41,0.46-0.64c0.13-0.23,0.32-0.36,0.55-0.48c-0.04,0.07-0.09,0.14-0.12,0.22
		c-0.05,0.13-0.11,0.27-0.11,0.4c0,0.19,0.19,0.31,0.35,0.22c0.31-0.17,0.49-0.47,0.67-0.75c0.02-0.03-0.01-0.12-0.05-0.16
		c-0.15-0.21-0.37-0.24-0.61-0.27c-0.22-0.03-0.36,0.05-0.48,0.25c-0.26,0.42-0.55,0.82-0.83,1.23c-0.1,0.15-0.37,0.19-0.58,0.07
		c-0.4-0.23-0.65-0.57-0.7-1.03c-0.02-0.18-0.08-0.22-0.25-0.2c-0.4,0.05-0.78-0.26-0.8-0.65c0.12,0.12,0.22,0.25,0.34,0.36
		c0.12,0.1,0.25,0.2,0.4,0.11c-0.23-0.28-0.46-0.53-0.67-0.81c-0.01-0.01,0-0.02-0.01-0.03c0.04-0.14,0.08-0.3,0.12-0.46
		c0.11-0.13,0.25-0.13,0.47-0.01c0.48,0.27,0.64,0.69,0.45,1.21c-0.02,0.07-0.05,0.13-0.04,0.23c0.04-0.05,0.09-0.09,0.13-0.14
		c0.21-0.26,0.42-0.52,0.63-0.78c0.05-0.07,0.1-0.15,0.21-0.08c0.11,0.07,0.08,0.15,0.04,0.24c-0.05,0.11-0.11,0.22-0.15,0.34
		c-0.08,0.23-0.01,0.44,0.19,0.57c0.19,0.12,0.41,0.11,0.56-0.09c0.16-0.22,0.29-0.47,0.39-0.73c0.07-0.17-0.05-0.32-0.2-0.39
		c-0.16-0.08-0.34-0.14-0.51-0.2c0.24-0.13,0.49-0.1,0.64,0.13c0.13,0.19,0.21,0.42,0.31,0.63c0.06,0.15,0.12,0.22,0.31,0.16
		c0.4-0.12,0.75,0.08,0.88,0.47c0.05,0.16,0.07,0.33,0.09,0.49c0.02,0.1,0.02,0.21,0.03,0.32c-0.33,0.11-0.48,0.39-0.56,0.71
		c-0.05,0.18,0.01,0.32,0.15,0.42c0.15,0.11,0.31,0.07,0.45-0.04c0.22-0.16,0.29-0.38,0.22-0.64c-0.02-0.09-0.05-0.19-0.05-0.29
		c0.25,0.31,0.57,0.58,0.47,1.05c-0.04,0.16-0.04,0.33-0.09,0.49c-0.03,0.13,0.01,0.21,0.1,0.29c0.48,0.43,0.99,0.65,1.62,0.32
		c0.1-0.1,0.19-0.2,0.31-0.32c0.26,0.1,0.54,0.05,0.78-0.16c0.2-0.17,0.25-0.33,0.15-0.58c-0.07-0.17-0.17-0.34-0.25-0.52
		c0.11,0.1,0.21,0.2,0.32,0.29c0.67,0.53,1.31,0.07,1.51-0.52c0.02-0.06-0.03-0.17-0.08-0.22c-0.37-0.46-0.75-0.92-1.13-1.38
		c-0.06-0.07-0.11-0.15-0.13-0.25c0.13,0.16,0.25,0.32,0.38,0.47c0.32,0.35,0.65,0.7,0.99,1.04c0.28,0.29,0.29,0.28,0.64,0.21
		c0,0.02,0.01,0.03,0.01,0.05c-0.18,0.04-0.36,0.07-0.58,0.12c-0.1,0.24-0.26,0.51-0.57,0.65c-0.3,0.14-0.61,0.12-0.92,0.06
		c-0.01,0.02-0.03,0.03-0.03,0.04c-0.12,0.56-0.25,0.72-0.82,0.77c-0.24,0.03-0.37,0.21-0.57,0.27c-0.46,0.29-0.95,0.26-1.5-0.13
		c-0.18,0.25-0.43,0.19-0.68,0.13C59.95,90.56,59.61,90.26,59.22,90.1z M59.02,87.48c-0.15,0.08-0.29,0.15-0.44,0.23
		c-0.01-0.01-0.02-0.02-0.03-0.03c0.1-0.1,0.2-0.28,0.32-0.3c0.27-0.05,0.55-0.02,0.74,0.23c0.02,0.03,0.03,0.1,0.01,0.13
		c-0.16,0.21-0.33,0.42-0.51,0.61c-0.05,0.05-0.21,0.09-0.25,0.05c-0.06-0.06-0.1-0.19-0.08-0.27c0.03-0.13,0.11-0.25,0.17-0.37
		c0.04-0.07,0.09-0.14,0.14-0.21C59.05,87.53,59.04,87.5,59.02,87.48z M54.87,81.82c-0.24,0.19-0.53,0.61-0.7,1.41
		c-0.23,0.64-0.41,1.39-0.41,2.24c0,1.25-0.08,1.71-0.13,1.88l-7.23,0.01l-2.65-5.95h11.42C55.08,81.51,54.98,81.66,54.87,81.82z
		 M55.45,86.69c0.17,0.22,0.36,0.44,0.54,0.66c-0.14-0.07-0.26-0.16-0.36-0.27c-0.08-0.09-0.14-0.2-0.21-0.31
		C55.43,86.74,55.44,86.72,55.45,86.69z M60.13,88.57c0.04,0.19,0.1,0.36,0.12,0.54c0.02,0.19-0.13,0.41-0.32,0.48
		c-0.18,0.06-0.35-0.04-0.38-0.23C59.5,89.08,59.8,88.64,60.13,88.57z M65.77,88.8c-0.14,0.07-0.24,0.07-0.36-0.05
		c-0.92-0.84-1.67-1.81-2.34-2.85c-0.03-0.05-0.07-0.1-0.11-0.15c-0.01,0.01-0.03,0.02-0.04,0.03c0.02,0.05,0.04,0.11,0.07,0.16
		c0.15,0.28,0.29,0.57,0.47,0.82c0.51,0.69,1.05,1.36,1.58,2.04c0.04,0.05,0.09,0.12,0.08,0.17c-0.05,0.39-0.58,0.77-0.96,0.67
		c-0.18-0.05-0.37-0.13-0.5-0.26c-0.49-0.49-0.95-1.01-1.43-1.51c-0.04-0.04-0.09-0.08-0.13-0.12c-0.01,0.07,0.01,0.1,0.04,0.13
		c0.23,0.28,0.47,0.55,0.68,0.83c0.24,0.32,0.49,0.64,0.69,0.99c0.16,0.28,0.05,0.5-0.28,0.67c-0.28,0.15-0.56,0.08-0.72-0.15
		c-0.08-0.12-0.16-0.24-0.27-0.33c-0.46-0.4-0.93-0.8-1.4-1.2c-0.02-0.02-0.05-0.02-0.07-0.03c0.02,0.08,0.06,0.13,0.1,0.17
		c0.5,0.47,0.99,0.93,1.49,1.4c0.23,0.21,0.22,0.31-0.04,0.48c-0.06,0.04-0.12,0.06-0.18,0.09c-0.4,0.17-0.75,0.04-1.09-0.17
		c-0.36-0.23-0.38-0.27-0.31-0.68c0.03-0.15,0.05-0.31,0.08-0.46c0.01-0.04,0.01-0.08,0-0.11c-0.14-0.31-0.27-0.63-0.56-0.84
		c-0.13-0.09-0.16-0.2-0.18-0.34c-0.02-0.2-0.04-0.4-0.1-0.58c-0.12-0.35-0.39-0.54-0.74-0.54c-0.14,0-0.31,0.05-0.4-0.01
		c-0.1-0.07-0.12-0.25-0.17-0.38c-0.02-0.06-0.04-0.12-0.08-0.17c-0.08-0.1-0.15-0.22-0.24-0.3c-0.24-0.19-0.65-0.13-0.77,0.08
		c0.22,0.07,0.44,0.14,0.66,0.23c0.13,0.06,0.23,0.18,0.17,0.33c-0.1,0.23-0.21,0.46-0.36,0.66c-0.14,0.19-0.31,0.2-0.48,0.1
		c-0.18-0.11-0.24-0.28-0.16-0.5c0.04-0.12,0.11-0.24,0.16-0.35c0.06-0.13,0.03-0.23-0.09-0.3c-0.12-0.07-0.2-0.03-0.28,0.08
		c-0.17,0.22-0.35,0.44-0.53,0.66c0.11-0.47-0.07-0.81-0.43-1.08c-0.26-0.2-0.46-0.23-0.62-0.12c0.21-0.98,0.37-2.29,0.56-3.19
		c0.01-0.02,0.02-0.04,0.04-0.06c0.41-0.51,0.54-0.9,0.39-1.18c-0.03-0.06-0.07-0.1-0.12-0.14c1.05-0.7,2.7-0.64,2.72-0.64l0.03,0
		l0.02-0.02c0.02-0.02,0.04-0.05,0.06-0.08l0.99,0.2c-0.67,0.6-1.21,1.29-1.43,2.21c-0.01,0.06-0.03,0.13-0.04,0.2
		c0.19-0.03,0.35-0.07,0.51-0.08c0.11-0.01,0.21,0.03,0.23,0.16c0.07,0.52-0.32,0.93-0.83,0.86c-0.2-0.03-0.27-0.14-0.19-0.32
		c0.06-0.13,0.14-0.25,0.21-0.37c-0.21,0.1-0.34,0.26-0.41,0.47c-0.06,0.18-0.02,0.34,0.12,0.46c0.58,0.48,1.24,0.47,1.7-0.14
		c0.17-0.22,0.34-0.44,0.5-0.67c0.16-0.24,0.46-0.42,0.31-0.79c0.05,0.03,0.08,0.05,0.09,0.09c0.08,0.16,0.2,0.16,0.32,0.06
		c0.14-0.12,0.28-0.24,0.38-0.4c0.12-0.19,0.19-0.42,0.3-0.66c-0.04,0.24-0.09,0.46-0.14,0.74c0.29-0.15,0.54-0.27,0.79-0.4
		l0.02,0.02c-0.22,0.21-0.44,0.43-0.66,0.64c0.02,0.02,0.03,0.04,0.05,0.04c0.78,0.39,1.4,0.97,1.91,1.67
		c0.12,0.17,0.25,0.2,0.42,0.15c0.24-0.07,0.48-0.16,0.72-0.24c-0.24,0.25-0.6,0.28-0.95,0.39c0.1,0.09,0.17,0.15,0.23,0.22
		c0.1,0.13,0.21,0.15,0.36,0.1c0.29-0.1,0.58-0.2,0.85-0.29c-0.22,0.27-0.58,0.36-0.91,0.5c0.3,0.33,0.58,0.65,0.87,0.96
		c0.35,0.37,0.54,0.81,0.62,1.3C66.33,88.24,66.16,88.59,65.77,88.8z M66.31,87.69c-0.01-0.03,0.02-0.06,0.03-0.09
		c0.12,0.33,0.12,0.64-0.1,0.93c-0.02,0.02-0.04,0.04-0.07,0.06C66.37,88.31,66.38,88,66.31,87.69z M59.2,80.69
		c0,0-0.01,0.01-0.01,0.01c-0.24-0.01-1.79-0.02-2.8,0.68c-0.02-0.01-0.04-0.02-0.05-0.02c-0.03,0.05-0.07,0.09-0.1,0.14
		c-0.2-0.02-0.43,0-0.63,0.03c0.09-0.12,0.16-0.2,0.17-0.2l0.35-0.36H43.34c-0.1-0.24-0.19-0.49-0.29-0.73l15.63-0.11
		c-0.02,0.14-0.02,0.29-0.01,0.45L59.2,80.69z M53.57,87.77c0.04,0.02,0.09,0.04,0.14,0.04c0.03,0,0.05,0,0.08-0.01
		c0.06-0.02,0.12-0.06,0.17-0.14c0.35,0.08,0.93,0.08,1.3-0.51c0.03-0.05,0.05-0.13,0.08-0.19c0.02,0.45,0.37,0.78,0.85,0.74
		c0.14-0.01,0.2,0.01,0.19,0.15c0,0.05,0.01,0.11,0.03,0.16c0.11,0.35,0.31,0.63,0.61,0.84c0.19,0.13,0.4,0.17,0.63,0.09
		c-0.02,0.49,0.32,0.99,0.76,1.19c-0.13,0.18-0.41,0.6-0.6,1.15l-9.65,0.08c-0.61-1.19-1.2-2.38-1.77-3.57L53.57,87.77z
		 M61.24,97.11c-0.02,0.02-0.04,0.04-0.06,0.07c-0.25,0.24-0.52,0.48-0.79,0.73l-0.05-2.53c0.37,0.21,0.68,0.38,0.91,0.54V97.11z
		 M60.44,100.56l-0.02-0.74c0.23-0.2,0.5-0.38,0.81-0.55v1.31C60.93,100.6,60.65,100.59,60.44,100.56z M61.24,101.97v1.54h-0.73
		l-0.04-1.66C60.74,101.93,60.99,101.96,61.24,101.97z M60.43,91.68l0.81-0.01v1.93C60.59,93.05,60.18,92.5,60.43,91.68z
		 M57.89,73.87c0,0.11-0.09,0.19-0.19,0.19c-0.11,0-0.19-0.09-0.19-0.19c0-0.1,0.08-0.19,0.19-0.19
		C57.81,73.69,57.89,73.77,57.89,73.87z M48.37,91.78l9.32-0.08c-0.15,0.74-0.05,1.62,0.8,2.4c0.48,0.44,0.97,0.76,1.42,1.03
		l0.07,3.18c-1.08,1.06-1.88,2.2-0.35,3.16c0.14,0.09,0.28,0.14,0.42,0.2l0.04,1.84h-4.9c-1.21-1.88-2.39-3.78-3.52-5.72
		C50.5,95.81,49.41,93.8,48.37,91.78z M76.39,128.9c-8.17-7.38-15.02-15.81-20.93-24.96h4.64h1.58h15.19v-0.43H61.67v-1.57
		c1.11-0.18,1.86-1.04,1.82-1.68c0,0-0.93,0.19-1.82,0.29v-1.51c1.49-0.77,3.22-1.47,2.21-3.03c-0.59-0.91-1.47-1.51-2.21-2.07
		v-2.27l15.42-0.13l0.37,38.03C77.13,129.47,76.78,129.26,76.39,128.9z M83.29,124.9c-1.35,1.32-2.67,2.68-4.02,4
		c-0.53,0.51-1,0.77-1.53,0.72l0.14,0l-0.07-6.74c0.49-0.21,1.8-0.79,3.16-1.45c1.7-0.82,3.52-4.78,3.52-7.97
		c0-3.19,0.66-1.48,1.92-3.74c1.26-2.25,0.66-2.8,0.44-4.07c-0.22-1.26,0.88-0.44,1.87-4.01c0.99-3.57,1.15-3.35,2.8-5.64
		c1.65-2.29-0.27-1.56-1.48-2.27C88.84,93,89.77,95.53,89,96.46c-0.77,0.93-0.66,0.6-0.77,2.09c-0.11,1.48-0.33,1.7-1.59,2.91
		c-1.26,1.21-0.22,2.2-1.59,3.24c-1.37,1.04-0.6,1.87-2.83,6.6c-2.05,4.35-4.16,1.82-4.49,1.39l-0.02-2.01
		c0.44-0.15,1.53-0.55,2.67-1.14c1.48-0.77,1.65-1.81,2.58-3.08s0.55-2.47,0.88-3.79c0.33-1.32,1.59-1.37,2-5.33
		c0.41-3.96,1.19-2.91,2.4-4.57c1.21-1.65,1.1-0.71,1.22-1.45c0.03-0.2-0.02-0.35-0.12-0.47l0.11,0.03l0.34,0.2
		c0.09,0.21,0.18,0.41,0.37,0.61c0.06,0.05,0.12,0.12,0.25,0.15c0.05,0.02,0.14,0.01,0.19,0l0.08-0.02
		c0.05-0.01,0.09-0.02,0.16-0.03c0.07-0.01,0.14-0.03,0.2-0.05c0.38-0.25,0.62,0.12,1.18,0.34c0.05,0.01,0.09,0.03,0.17,0.01
		c0.09-0.02,0.08-0.02,0.12-0.04l0.17-0.07l0.04-0.02c0.06,0.26,0.18,0.53,0.37,0.81c0.71,1.04,0.99,1.93,0.77,3.91
		c-0.22,1.98-1.15,1.15-1.55,2.91c-0.39,1.76,1,2.42-0.65,3.85c-1.65,1.43,0.06,2.31-0.33,4.07c-0.38,1.76-1.15-0.22-1.85,2.69
		c-0.69,2.91-0.9,2.75-0.9,2.75c-2.24,4.88-1.96,7.61-1.78,8.45C85.63,122.59,84.46,123.75,83.29,124.9z M98.18,105.65
		c-0.05-0.38-0.27-0.6-1.65-1.21c-1.37-0.6-0.49-1.43-0.44-2.91c0.05-1.48-0.44-0.82-1.7-2.36c-1.26-1.54,0.82-1.57,0.82-1.57
		l4.71,7.24l0.08-0.14c-0.4,0.63-0.83,1.25-1.24,1.87C98.7,106.49,98.23,106.01,98.18,105.65z M102.96,99.79
		c-0.1-0.1-6.98-7.24-7.58-8.23c-0.6-0.99-1.54-0.88-2.14-0.88c-0.1,0-0.18,0.04-0.26,0.08c-0.14-0.05-0.29-0.1-0.44-0.14
		c0-0.82-0.77-1.23-0.42-1.68c0.15-0.27,0.38-0.53,0.58-0.8c0.21-0.27,0.41-0.55,0.61-0.83c0.1-0.14,0.2-0.28,0.29-0.44
		c0.05-0.08,0.09-0.17,0.12-0.26c0.03-0.1,0.05-0.23,0-0.35c-0.09-0.23-0.25-0.33-0.37-0.45c-0.13-0.11-0.25-0.23-0.36-0.34
		c-0.46-0.47-0.86-1.03-1.14-1.62c-0.13-0.3-0.2-0.62-0.18-0.94c0.02-0.32,0.13-0.63,0.27-0.94c0.28-0.61,0.61-1.22,0.85-1.86
		c0.12-0.32,0.24-0.65,0.29-0.99c0.06-0.34,0.02-0.71-0.14-1.02c-0.17-0.31-0.47-0.53-0.79-0.65c-0.32-0.12-0.66-0.18-1-0.18
		c0.34,0.02,0.68,0.08,0.99,0.22c0.31,0.14,0.58,0.35,0.73,0.65c0.14,0.29,0.17,0.64,0.1,0.97c-0.06,0.33-0.18,0.64-0.31,0.95
		c-0.26,0.63-0.6,1.21-0.91,1.83c-0.15,0.31-0.28,0.65-0.31,1.01c-0.03,0.36,0.05,0.73,0.18,1.05c0.29,0.64,0.68,1.22,1.16,1.73
		c0.12,0.13,0.25,0.25,0.37,0.36c0.12,0.11,0.25,0.23,0.28,0.33c0.04,0.08-0.03,0.21-0.1,0.35c-0.08,0.14-0.18,0.27-0.28,0.41
		c-0.2,0.27-0.41,0.54-0.62,0.8c-0.21,0.27-0.43,0.52-0.62,0.85c-0.09,0.16-0.16,0.4-0.11,0.62c0.05,0.21,0.16,0.37,0.24,0.52
		c0.08,0.14,0.16,0.28,0.21,0.43c0.03,0.07,0.05,0.14,0.06,0.21c0.01,0.06,0,0.16,0.01,0.14l0.12,0.26
		c0.14,0.04,0.28,0.09,0.42,0.14c-0.05,0.13-0.07,0.29-0.07,0.46l-0.14,0.06l-0.16,0.06c-0.09,0.03-0.01,0.01-0.05,0.01
		c-0.14-0.05-0.36-0.21-0.58-0.33c-0.12-0.06-0.25-0.11-0.42-0.12c-0.08,0-0.19,0.02-0.25,0.05l-0.16,0.06
		c-0.05,0.02-0.1,0.03-0.14,0.04c-0.04,0.01-0.12,0.01-0.19,0.03l-0.08,0.02c0.01,0-0.02-0.01-0.05-0.04
		c-0.12-0.12-0.22-0.34-0.3-0.53l-0.03-0.07l-0.06-0.04l-0.41-0.25l-0.02-0.01l-0.03-0.01l-0.54-0.17l-0.15-0.05l-0.09,0.13
		c-0.03,0.04-0.07,0.08-0.1,0.13c-0.26-0.06-0.55-0.08-0.82-0.1c-0.71-0.03-0.77,0.71-0.77,0.71s-0.3,0.45-0.74,1.1
		c-0.82,0.3-1.71,0.44-2.56,0.31c-0.23-0.04-0.47-0.1-0.66-0.19c-0.19-0.09-0.28-0.22-0.27-0.41c0.02-0.4,0.3-0.84,0.56-1.24
		c0.55-0.81,1.21-1.55,1.76-2.4c0.27-0.43,0.51-0.89,0.64-1.39c0.13-0.5,0.17-1.01,0.16-1.51c-0.03-1.01-0.21-1.99-0.38-2.97
		c-0.18-0.98-0.43-1.94-0.5-2.92c-0.04-0.49-0.05-0.99,0.09-1.46c0.07-0.23,0.19-0.46,0.39-0.6c0.2-0.15,0.46-0.16,0.7-0.2
		c-0.24,0.03-0.51,0.02-0.72,0.17c-0.21,0.14-0.35,0.37-0.43,0.6C85,78.53,85,79.05,85.02,79.54c0.04,1,0.26,1.97,0.41,2.95
		c0.15,0.98,0.31,1.96,0.32,2.93c0,0.49-0.04,0.97-0.18,1.43c-0.13,0.46-0.36,0.89-0.62,1.29c-0.55,0.8-1.22,1.54-1.79,2.37
		c-0.14,0.21-0.28,0.42-0.4,0.66c-0.11,0.23-0.23,0.48-0.24,0.79c0,0.15,0.03,0.32,0.13,0.46c0.09,0.14,0.23,0.23,0.36,0.3
		c0.26,0.12,0.51,0.18,0.77,0.23c0.76,0.12,1.53,0.06,2.26-0.14c-0.86,1.31-2,3.06-2.49,3.99c-0.85,1.59-0.53,2.36-3.06,3.96
		c-1.74,1.1-2.53,1.59-2.86,1.79L77.49,89l0.1,0.01l-0.17-7.84l-0.14-13.98h2.64v0.02h0.43v-0.02h4.34l0,0.02l0.43,0l0-0.02h18.82
		v0.02h0.43v-0.02h1.28v0.02h0.43v-0.02h6.06h4.25C113.37,78.71,108.88,89.58,102.96,99.79z M109.87,44.56
		c2.92,0.61,6,0.47,9.01,0.54c1.13,0.03,1.76,0.2,1.75,1.52c-1.09,5.63-2.03,11.29-3.31,16.87c-0.25,1.1-0.56,2.18-0.84,3.28h-4.36
		v-3.94v-3.37v-0.18l-0.05-0.01l-0.14-0.52l-2.48-0.57v-4.69l8.34,0.76l-0.29-1.81l-8.05-0.56v-1.5h-4.77v1.17L90.4,50.55
		c0-0.04,0-0.1,0-0.12c0-0.37-0.34-0.81-0.4-0.81c-0.06,0-0.45-0.36-0.45-0.46c0-0.1-0.26-0.1-0.45-0.1c-0.1,0-0.15-0.4-0.18-0.8
		l21.47-0.68v-1.29L86.77,47.3l12.43-4.11L98.95,42L85.1,46.66v1.19l0.22-0.07l-0.25,0.35c0.04-0.55,0.02-1.1-0.07-1.65
		c0-0.02-0.01-0.03-0.01-0.05l10.65-5.56l-0.9-1.17l-10,5.7c-0.06-0.23-0.12-0.46-0.2-0.68l7.88-5.63l-1.32-0.9l-0.12,0.11
		c-0.12,0.1-4.47,3.61-6.75,5.45l-0.07,0.06c-0.09-0.18-0.17-0.37-0.26-0.54l6.13-5.92C96.17,40.72,102.81,43.1,109.87,44.56z
		 M85.2,45.62l9.43-5.37L95,40.72l-9.75,5.09L85.2,45.62z M84.62,43.96c1-0.81,5.66-4.56,6.51-5.25l0.55,0.38l-7,5L84.62,43.96z
		 M88.76,36.6l-5.64,5.42c-0.19-0.25-0.4-0.47-0.61-0.7l4.65-5.71C87.69,35.95,88.22,36.28,88.76,36.6z M81.35,31.54l-2.5,7.28
		c-0.1-0.04-0.2-0.08-0.3-0.12l0,0l0.56-9.01C79.84,30.34,80.59,30.95,81.35,31.54z M77.59,28.9l-0.51,9.41
		c-0.17-0.03-0.34-0.09-0.51-0.11l-0.24-8.44c0.17-0.15,0.35-0.29,0.52-0.45C77.11,29.07,77.35,28.94,77.59,28.9z M75.11,30.8
		l0.43,7.23l0.25,0.1c-0.1-0.01-0.19-0.01-0.29-0.02l-1.73-6.25C74.22,31.51,74.67,31.17,75.11,30.8z M72.44,32.87l1.67,5.27
		c-0.16,0.01-0.32,0.02-0.47,0.04l-2.09-4.7C71.85,33.27,72.14,33.07,72.44,32.87z M67.2,41.88c-0.26,0.34-0.5,0.71-0.72,1.09
		l-5.69-3.54c0.61-0.28,1.22-0.56,1.82-0.85L67.2,41.88z M58.36,40.49c0.28-0.12,0.55-0.24,0.83-0.36c0.57,0.31,2.26,1.31,4.04,2.38
		c-0.14,0.25-0.21,0.51-0.24,0.68l-1.01,0.15l-6.15-1.86C56.68,41.17,57.52,40.85,58.36,40.49z M33.89,45.35
		c3.14-0.01,6.23-0.23,9.28-0.67L42.5,66.77h-4.23v0.14c-1.44-4.61-2.73-9.29-3.85-14.03c-0.51-2.16-0.91-4.35-1.27-6.55
		C33.11,46.04,33.63,45.35,33.89,45.35z"/>
	<path class="st15" d="M32.51,43.57c-1.41,0.05-1.82,0.63-1.51,2.06c0.1,0.45,0.11,0.92,0.21,1.37C34.01,60.06,37.92,72.77,43.39,85
		c3.23,7.2,6.89,14.14,11.26,20.72c6.35,9.56,13.47,18.46,22.11,26.08c0.9,0.79,1.59,0.79,2.4,0.04c0.97-0.92,1.93-1.86,2.89-2.79
		c4.99-4.84,10.01-9.67,14.13-15.31c10.47-14.35,18.19-30.03,22.49-47.31c1.33-5.35,2.33-10.78,3.43-16.18
		c0.35-1.7,0.5-3.44,0.75-5.17c0.15-1.02-0.22-1.51-1.33-1.53c-1.64-0.04-3.28-0.24-4.92-0.3c-7.06-0.22-13.58-2.48-19.95-5.27
		c-6.24-2.73-12.12-6.06-17.27-10.6c-1.4-1.23-2.28-1.11-3.54,0.28c-0.3,0.34-0.62,0.67-0.97,0.96c-5.82,4.7-12.42,8-19.35,10.68
		c-6.7,2.59-13.67,3.95-20.85,4.26C33.95,43.56,33.23,43.54,32.51,43.57z M57.77,39.15c6.95-2.93,13.55-6.47,19.17-11.6
		c0.63-0.57,1.13-0.63,1.85,0.01c9.34,8.24,20.29,13.3,32.4,15.82c3.02,0.63,6.22,0.49,9.34,0.56c1.17,0.03,1.83,0.2,1.82,1.57
		c-1.14,5.83-2.11,11.71-3.44,17.5c-4.03,17.59-11.41,33.7-21.78,48.46c-3.93,5.59-8.64,10.48-13.5,15.23
		c-1.4,1.37-2.77,2.78-4.17,4.15c-0.97,0.94-1.77,1.1-2.99,0c-10.35-9.34-18.67-20.3-25.65-32.27C42.33,84.04,36.78,68.34,32.94,52
		c-0.53-2.24-0.95-4.52-1.31-6.79c-0.05-0.3,0.5-1.02,0.77-1.02C41.19,44.16,49.66,42.58,57.77,39.15z"/>
	<path class="st15" d="M57.01,22.28C45.79,27.6,34.03,30.9,21.62,31.3c-6.4,0.21-5.56,0.37-4.49,5.87
		c2.4,12.24,6.09,24.11,10.32,35.84c4.66,12.94,10.87,25.09,17.94,36.83c0.57,0.95,1.45,1.71,2.19,2.56
		c-0.54-1.15-0.92-2.41-1.64-3.43c-5.79-8.27-9.78-17.47-13.78-26.64c-4.99-11.44-8.78-23.3-11.69-35.44
		c-1.12-4.67-2.05-9.39-3.07-14.09c23.04-0.83,43.28-8.29,60.72-22.58c17.05,13.61,35.97,21.97,58.04,22.62
		c0,0.52,0.07,1.01-0.01,1.48c-1.1,6.15-1.98,12.35-3.41,18.42c-1.95,8.27-3.93,16.58-6.67,24.61c-2.34,6.85-5.57,13.42-8.76,19.93
		c-4.8,9.77-10.54,18.96-17.23,27.61c-5.89,7.62-13.01,13.98-19.75,20.74c-1.53,1.54-2.65,1.53-4.24-0.04
		c-3.15-3.11-6.53-6-9.81-8.98c3.12,3.34,6.15,6.76,9.37,9.98c2.23,2.23,3.06,2.25,5.3-0.02c5.97-6.05,12.05-12.04,17.64-18.43
		c8.25-9.43,14.29-20.36,20.07-31.4c4.85-9.27,8.56-19.04,11.53-29.06c3.15-10.59,5.63-21.33,6.89-32.33
		c0.45-3.96,0.44-3.84-3.59-4.01c-3.67-0.15-7.4-0.23-10.97-0.97c-14.28-2.97-27.33-8.85-39.12-17.46c-1.76-1.29-3.38-2.77-5.1-4.2
		c-0.69,0.44-1.35,0.75-1.86,1.21C70.68,15.17,64.01,18.97,57.01,22.28z"/>
	<polygon class="st15" points="24.43,38.35 25.29,40.78 25.75,38.33 28.3,38.71 26.37,37.16 28.01,35.07 25.55,36.09 24.71,33.5 
		24.16,36.14 21.71,35.57 23.65,37.21 22,39.21 	"/>
	<polygon class="st15" points="129.87,36.09 129.03,33.5 128.48,36.14 126.03,35.57 127.97,37.21 126.32,39.21 128.75,38.35 
		129.61,40.78 130.06,38.33 132.62,38.71 130.69,37.16 132.33,35.07 	"/>
	<polygon class="st15" points="77.76,139.83 78.62,142.25 79.08,139.81 81.63,140.19 79.7,138.64 81.34,136.55 78.88,137.57 
		78.04,134.98 77.49,137.62 75.04,137.05 76.98,138.69 75.33,140.69 	"/>
	<path class="st15" d="M27.91,53.47c2.26-0.44,3.59-2.1,3.18-4.18c-0.4-2.03-2.27-3.22-4.69-2.75c-2.3,0.45-3.58,2.17-3.19,4.18
		C23.59,52.67,25.29,53.99,27.91,53.47z M26.63,47.59c1.67-0.33,3.33,0.19,3.65,1.82c0.32,1.64-1.1,2.74-2.62,3.03
		c-1.73,0.34-3.33-0.26-3.64-1.82C23.72,49.08,25,47.91,26.63,47.59z"/>
	<path class="st15" d="M27.33,62.82c0.88,0.51,1.98,0.62,3.2,0.29c1.21-0.33,1.97-0.95,2.4-1.78c0.43-0.82,0.49-1.9,0.11-3.28
		c-0.21-0.77-0.46-1.45-0.71-2.01l-7.36,1.99c0.08,0.5,0.2,1.09,0.39,1.78C25.75,61.25,26.44,62.31,27.33,62.82z M31.89,57.19
		c0.12,0.24,0.27,0.61,0.41,1.11c0.55,2.04-0.3,3.35-2.07,3.81c-2.02,0.55-3.48-0.26-4.04-2.33c-0.1-0.38-0.19-0.74-0.21-0.99
		L31.89,57.19z"/>
	<path class="st15" d="M33.6,72.88c2.18-0.73,3.28-2.55,2.61-4.55c-0.66-1.96-2.67-2.9-5.01-2.12c-2.22,0.75-3.27,2.61-2.62,4.56
		C29.21,72.64,31.07,73.73,33.6,72.88z M31.56,67.21c1.61-0.54,3.33-0.24,3.86,1.33c0.53,1.58-0.74,2.86-2.2,3.35
		c-1.67,0.56-3.34,0.17-3.84-1.33C28.87,69.06,29.99,67.74,31.56,67.21z"/>
	<path class="st15" d="M32.97,82.2l0.38,0.94l7.2-2.88l-0.35-0.88l-3.01,1.2c-1.12,0.45-1.99,0.82-2.92,1.29l-0.02-0.02
		c0.6-0.64,1.19-1.36,1.82-2.23l2.72-3.76l-0.41-1.02l-7.2,2.88l0.35,0.88l3.08-1.23c1.2-0.48,2.05-0.85,2.94-1.26l0.02,0.03
		c-0.63,0.67-1.27,1.48-1.87,2.31L32.97,82.2z"/>
	<polygon class="st15" points="42.36,86.41 43.34,88.57 44.12,88.21 41.72,83 40.95,83.35 41.93,85.49 35.66,88.38 36.08,89.3 	"/>
	<path class="st15" d="M44.99,98.24c2.04-1.06,2.84-3.03,1.86-4.9c-0.96-1.84-3.09-2.45-5.28-1.31c-2.08,1.09-2.82,3.09-1.87,4.91
		C40.62,98.69,42.62,99.48,44.99,98.24z M42.09,92.97c1.51-0.79,3.25-0.76,4.02,0.71c0.77,1.48-0.28,2.94-1.65,3.65
		c-1.56,0.81-3.27,0.69-4-0.71C39.72,95.21,40.62,93.73,42.09,92.97z"/>
	<polygon class="st15" points="50.04,99.35 43.43,103.41 45.69,107.09 46.41,106.65 44.67,103.82 50.57,100.2 	"/>
	<path class="st15" d="M55.71,107.87c-1.18-1.7-3.38-2.04-5.4-0.64c-1.93,1.34-2.41,3.42-1.25,5.11c1.13,1.63,3.21,2.15,5.41,0.63
		C56.36,111.66,56.91,109.61,55.71,107.87z M53.83,112.12c-1.45,1-3.16,1.1-4.06-0.21c-0.9-1.3-0.19-2.88,1.17-3.82
		c1.4-0.97,3.13-1.16,4.07,0.2C55.96,109.67,55.09,111.25,53.83,112.12z"/>
	<path class="st15" d="M58.03,118.81l0.96,1.25l-1.83,1.41c-0.23-0.11-0.58-0.41-0.98-0.93c-1.1-1.43-0.91-3.08,0.65-4.28
		c1.54-1.19,3.22-0.93,4.37,0.56c0.48,0.62,0.68,1.12,0.78,1.56l0.79-0.31c-0.08-0.36-0.35-1.04-0.9-1.75
		c-1.59-2.06-3.9-2.28-5.73-0.88c-0.96,0.74-1.52,1.7-1.62,2.62c-0.11,1.04,0.24,1.99,0.96,2.92c0.64,0.83,1.39,1.37,1.79,1.62
		l2.95-2.28l-1.56-2.02L58.03,118.81z"/>
	<path class="st15" d="M67.38,123.01c-1.34-1.58-3.56-1.71-5.44-0.12c-1.79,1.52-2.07,3.64-0.75,5.2c1.28,1.51,3.41,1.83,5.44,0.11
		C68.39,126.72,68.75,124.63,67.38,123.01z M65.92,127.43c-1.34,1.14-3.04,1.4-4.06,0.18c-1.02-1.2-0.46-2.85,0.8-3.92
		c1.3-1.1,3-1.46,4.07-0.19C67.8,124.78,67.09,126.43,65.92,127.43z"/>
	<path class="st15" d="M70.4,135.11c0.84-0.77,0.86-1.69,0.35-3c-0.42-1.07-0.47-1.66,0.06-2.15c0.39-0.36,1.13-0.49,1.84,0.29
		c0.47,0.52,0.65,1.06,0.72,1.34l0.79-0.35c-0.09-0.39-0.34-0.93-0.88-1.52c-1.02-1.11-2.35-1.25-3.25-0.43
		c-0.81,0.74-0.76,1.76-0.24,2.99c0.41,1.05,0.38,1.63-0.15,2.12c-0.58,0.53-1.38,0.45-2.07-0.31c-0.47-0.51-0.74-1.15-0.84-1.67
		l-0.79,0.38c0.08,0.49,0.46,1.24,0.97,1.79C68.16,135.96,69.52,135.92,70.4,135.11z"/>
	<path class="st15" d="M83.18,131.6c-0.57,0.56-1.04,1.12-1.41,1.62l5.38,5.46c0.4-0.32,0.86-0.71,1.37-1.22
		c1.08-1.06,1.66-2.19,1.67-3.22c0.02-1.02-0.43-2.04-1.33-2.95c-0.88-0.9-1.81-1.26-2.75-1.22
		C85.17,130.1,84.21,130.58,83.18,131.6z M88.08,136.74c-0.28,0.28-0.55,0.53-0.77,0.67L83,133.03c0.15-0.23,0.4-0.54,0.77-0.9
		c1.52-1.49,3.08-1.39,4.36-0.07C89.61,133.56,89.62,135.23,88.08,136.74z"/>
	<polygon class="st15" points="96.88,128.24 96.24,127.69 94.05,130.27 91.91,128.45 93.87,126.14 93.24,125.6 91.28,127.91 
		89.4,126.31 91.47,123.87 90.83,123.33 88.1,126.53 94.04,131.58 	"/>
	<path class="st15" d="M102.94,120.11l-4.8-6.74l-0.61,0.88l2.41,3.28c0.64,0.87,1.26,1.69,1.87,2.39l-0.01,0.02
		c-0.87-0.35-1.81-0.66-2.87-0.98l-3.84-1.2l-0.62,0.89l7.85,2.37L102.94,120.11z"/>
	<polygon class="st15" points="108.37,111.66 107.65,111.22 105.88,114.09 103.49,112.62 105.08,110.04 104.37,109.61 
		102.78,112.18 100.68,110.89 102.36,108.17 101.64,107.72 99.44,111.31 106.07,115.39 	"/>
	<path class="st15" d="M107.69,104.82l4.66-0.29l0.48-0.9l-6.85-3.71l-0.45,0.83l2.87,1.55c1.07,0.58,1.91,1.01,2.87,1.42l0,0.03
		c-0.88-0.05-1.81-0.05-2.89,0.03l-4.66,0.32l-0.52,0.97l6.85,3.71l0.45-0.83l-2.93-1.58c-1.14-0.62-1.97-1.04-2.87-1.46l0.01-0.04
		C105.64,104.92,106.67,104.89,107.69,104.82z"/>
	<polygon class="st15" points="116.45,96.51 115.7,96.13 114.17,99.14 111.67,97.86 113.04,95.16 112.3,94.79 110.92,97.48 
		108.73,96.37 110.18,93.51 109.43,93.13 107.52,96.88 114.46,100.42 	"/>
	<polygon class="st15" points="117.57,94.29 120.05,89.16 119.28,88.8 117.39,92.72 117.36,92.71 113.55,86.09 113,85.83 
		110.72,90.56 111.48,90.93 113.2,87.37 113.23,87.39 117.04,94.03 	"/>
	<path class="st15" d="M122.54,83.91c0.67-1.55,0.27-3.1-1.93-4.05l-4.17-1.81l-0.4,0.93l4.23,1.83c1.58,0.69,1.99,1.67,1.53,2.73
		c-0.41,0.96-1.4,1.37-3,0.68l-4.23-1.83l-0.4,0.93l4.21,1.83C120.59,86.11,121.91,85.37,122.54,83.91z"/>
	<polygon class="st15" points="126.5,73.54 125.71,73.24 124.54,76.41 121.9,75.44 122.95,72.59 122.17,72.31 121.12,75.15 
		118.81,74.29 119.92,71.29 119.13,71 117.67,74.95 124.98,77.65 	"/>
	<polygon class="st15" points="128.84,66.23 128.03,65.98 127.05,69.16 120.41,67.11 120.11,68.07 127.56,70.37 	"/>
	<path class="st15" d="M122.6,59.32l6.95,4.41l0.25-1.01l-2.19-1.36l0.65-2.69l2.58-0.23l0.25-1.05l-8.2,0.75L122.6,59.32z
		 M123.6,58.96c0.47-0.01,0.94-0.01,1.48-0.06l2.36-0.21l-0.55,2.28l-2.01-1.27c-0.43-0.26-0.86-0.49-1.28-0.71L123.6,58.96z"/>
	<path class="st15" d="M40.02,31.57c0.64-0.07,1.2,0.01,1.6,0.15l0.15-0.84c-0.28-0.11-0.91-0.25-1.88-0.14
		c-2.4,0.27-3.86,2.1-3.59,4.52c0.28,2.54,2.08,3.73,4.27,3.49c0.94-0.11,1.66-0.37,2-0.6l-0.3-0.77c-0.38,0.24-0.99,0.44-1.6,0.5
		c-1.88,0.21-3.11-0.88-3.32-2.78C37.13,33.07,38.21,31.78,40.02,31.57z"/>
	<path class="st15" d="M47.9,37.2c1.93-0.48,3.17-2.25,2.53-4.85c-0.55-2.24-2.28-3.5-4.35-2.99c-2.02,0.5-3.13,2.44-2.53,4.84
		C44.11,36.49,45.9,37.69,47.9,37.2z M46.23,30.17c1.63-0.4,2.8,0.98,3.17,2.48c0.42,1.72-0.1,3.36-1.65,3.74
		c-1.54,0.38-2.77-0.85-3.17-2.47C44.18,32.26,44.62,30.57,46.23,30.17z"/>
	<polygon class="st15" points="58.66,32.43 55.46,33.36 53.53,26.68 52.57,26.96 54.73,34.45 58.9,33.24 	"/>
	<polygon class="st15" points="63.6,22.91 59.89,24.89 63.56,31.76 67.43,29.7 67.03,28.95 64.05,30.54 62.73,28.06 65.4,26.64 
		65.01,25.9 62.34,27.33 61.18,25.16 64,23.65 	"/>
	<path class="st15" d="M70.37,19.85c0.63-0.47,1.14-0.66,1.58-0.76l-0.29-0.8c-0.37,0.07-1.05,0.33-1.77,0.87
		c-2.1,1.55-2.37,3.87-1,5.74c0.72,0.98,1.68,1.56,2.6,1.69c1.05,0.13,2.01-0.2,2.95-0.91c0.85-0.63,1.4-1.37,1.67-1.77l-2.23-3.01
		l-2.06,1.53l0.48,0.65l1.27-0.94L74.96,24c-0.12,0.23-0.42,0.57-0.95,0.97c-1.46,1.08-3.11,0.85-4.29-0.74
		C68.55,22.66,68.85,20.98,70.37,19.85z"/>
	
		<rect x="74.44" y="20.1" transform="matrix(2.797354e-03 -1 1 2.797354e-03 57.5072 98.8823)" class="st15" width="7.79" height="1.01"/>
	<path class="st15" d="M88.86,25.67c1.16-2,0.79-4.1-1.05-5.17c-1.8-1.05-3.94-0.42-5.19,1.72c-1.18,2.04-0.74,4.15,1.04,5.18
		C85.39,28.4,87.51,27.99,88.86,25.67z M83.57,22.75c0.86-1.48,2.35-2.39,3.79-1.56c1.45,0.84,1.34,2.65,0.56,3.99
		c-0.89,1.53-2.41,2.35-3.79,1.55C82.76,25.93,82.73,24.19,83.57,22.75z"/>
	<path class="st15" d="M107.1,34.94c0.83-0.6,1.37-1.57,1.57-2.82c0.19-1.25-0.07-2.2-0.66-2.93c-0.58-0.73-1.54-1.22-2.97-1.44
		c-0.79-0.12-1.52-0.16-2.14-0.16l-1.16,7.58c0.49,0.13,1.08,0.26,1.79,0.37C105.02,35.76,106.27,35.55,107.1,34.94z M102.84,34.55
		l0.93-6.08c0.27-0.02,0.67,0,1.18,0.08c2.1,0.32,2.95,1.63,2.67,3.45c-0.32,2.08-1.65,3.09-3.78,2.77
		C103.45,34.7,103.09,34.63,102.84,34.55z"/>
	<polygon class="st15" points="114.63,31.96 114.71,31.12 110.52,30.74 109.81,38.5 114.17,38.9 114.25,38.06 110.89,37.75 
		111.14,34.95 114.16,35.23 114.23,34.4 111.22,34.12 111.44,31.67 	"/>
	<path class="st15" d="M47.36,54.25v-3.29c0-0.6-0.53-1.1-1.19-1.1c-0.65,0-1.19,0.49-1.19,1.1v3.06L47.36,54.25z"/>
	<path class="st15" d="M52.1,54.47v-3.02c0-0.55-0.43-1.01-0.96-1.01c-0.53,0-0.96,0.45-0.96,1.01v2.82L52.1,54.47z"/>
	<path class="st15" d="M56.77,55.1v-3.02c0-0.55-0.43-1.01-0.96-1.01c-0.53,0-0.96,0.45-0.96,1.01v2.82L56.77,55.1z"/>
	<path class="st15" d="M59.86,52.02c-0.49,0-0.9,0.43-0.9,0.96v2.7l1.79,0.19v-2.89C60.76,52.45,60.36,52.02,59.86,52.02z"/>
	<path class="st15" d="M64.05,52.54c-0.49,0-0.9,0.43-0.9,0.96v2.7l1.79,0.19v-2.89C64.94,52.98,64.54,52.54,64.05,52.54z"/>
	<path class="st15" d="M67.4,53.17c-0.49,0-0.9,0.43-0.9,0.96v2.7l1.79,0.19v-2.89C68.3,53.61,67.9,53.17,67.4,53.17z"/>
	<path class="st15" d="M71.26,54.14c-0.39,0-0.72,0.35-0.72,0.77v2.15l1.43,0.16v-2.31C71.98,54.49,71.65,54.14,71.26,54.14z"/>
	<path class="st15" d="M47.61,63.62v-3.66c0-0.67-0.59-1.22-1.31-1.22c-0.72,0-1.31,0.55-1.31,1.22v3.42L47.61,63.62z"/>
	<path class="st15" d="M52.18,63.96v-3.73c0-0.68-0.43-1.24-0.96-1.24c-0.53,0-0.96,0.56-0.96,1.24v3.48L52.18,63.96z"/>
	<path class="st15" d="M55.88,59.62c-0.53,0-0.96,0.49-0.96,1.08v3.03l1.92,0.22v-3.25C56.84,60.11,56.41,59.62,55.88,59.62z"/>
	<path class="st15" d="M60,60.11c-0.49,0-0.9,0.43-0.9,0.96v2.7l1.79,0.19v-2.89C60.9,60.54,60.5,60.11,60,60.11z"/>
	<path class="st15" d="M63.84,60.35c-0.49,0-0.9,0.43-0.9,0.96v2.7l1.79,0.19v-2.89C64.74,60.78,64.33,60.35,63.84,60.35z"/>
	<path class="st15" d="M67.4,60.74c-0.49,0-0.9,0.43-0.9,0.96v2.7l1.79,0.19V61.7C68.3,61.17,67.9,60.74,67.4,60.74z"/>
	<path class="st15" d="M71.26,61.71c-0.39,0-0.72,0.35-0.72,0.77v2.15l1.43,0.16v-2.31C71.98,62.05,71.65,61.71,71.26,61.71z"/>
	<path class="st15" d="M74.57,61.71c-0.39,0-0.72,0.35-0.72,0.77v2.15l1.43,0.16v-2.31C75.28,62.05,74.96,61.71,74.57,61.71z"/>
	<path class="st15" d="M74.57,54.68c-0.39,0-0.72,0.35-0.72,0.77v2.15l1.43,0.16v-2.31C75.28,55.03,74.96,54.68,74.57,54.68z"/>
	<path class="st15" d="M77.92,55.23c-0.34,0-0.62,0.3-0.62,0.66v1.86l1.24,0.13V55.9C78.54,55.53,78.26,55.23,77.92,55.23z"/>
	<path class="st15" d="M81.17,55.85c-0.34,0-0.62,0.3-0.62,0.66v1.86l1.24,0.13v-1.99C81.79,56.14,81.51,55.85,81.17,55.85z"/>
	<path class="st15" d="M83.53,56.55c-0.28,0-0.51,0.25-0.51,0.55v1.53l1.02,0.11v-1.64C84.04,56.79,83.81,56.55,83.53,56.55z"/>
	<path class="st15" d="M85.78,57c-0.28,0-0.51,0.25-0.51,0.55v1.53l1.02,0.11v-1.64C86.29,57.25,86.06,57,85.78,57z"/>
	<path class="st15" d="M87.94,57.41c-0.23,0-0.41,0.2-0.41,0.44v1.24l0.82,0.09v-1.33C88.35,57.61,88.17,57.41,87.94,57.41z"/>
	<path class="st15" d="M90.06,57.78c-0.23,0-0.41,0.18-0.41,0.4v1.13l0.82,0.08v-1.21C90.47,57.96,90.29,57.78,90.06,57.78z"/>
	<path class="st15" d="M92.33,58.17c-0.23,0-0.41,0.17-0.41,0.37v1.05l0.82,0.08v-1.12C92.74,58.33,92.56,58.17,92.33,58.17z"/>
	<path class="st15" d="M94.5,58.29c-0.23,0-0.41,0.15-0.41,0.34v0.96l0.82,0.07v-1.03C94.91,58.44,94.73,58.29,94.5,58.29z"/>
	<path class="st15" d="M96.45,58.7c-0.23,0-0.41,0.15-0.41,0.34v0.96l0.82,0.07v-1.03C96.87,58.86,96.68,58.7,96.45,58.7z"/>
	<path class="st15" d="M98.56,59.1c-0.23,0-0.41,0.15-0.41,0.34v0.96l0.82,0.07v-1.03C98.98,59.26,98.79,59.1,98.56,59.1z"/>
	<path class="st15" d="M77.92,62.02c-0.34,0-0.62,0.3-0.62,0.66v1.86l1.24,0.13v-1.99C78.54,62.32,78.26,62.02,77.92,62.02z"/>
	<path class="st15" d="M81.05,62.19c-0.34,0-0.62,0.3-0.62,0.66v1.86l1.24,0.13v-1.99C81.67,62.49,81.39,62.19,81.05,62.19z"/>
	<path class="st15" d="M83.42,62.67c-0.28,0-0.51,0.25-0.51,0.55v1.53l1.02,0.11v-1.64C83.93,62.91,83.7,62.67,83.42,62.67z"/>
	<path class="st15" d="M85.83,62.67c-0.28,0-0.51,0.25-0.51,0.55v1.53l1.02,0.11v-1.64C86.34,62.91,86.11,62.67,85.83,62.67z"/>
	<path class="st15" d="M87.83,62.87c-0.23,0-0.41,0.2-0.41,0.44v1.24l0.82,0.09v-1.33C88.24,63.07,88.05,62.87,87.83,62.87z"/>
	<path class="st15" d="M90.14,63.16c-0.23,0-0.41,0.18-0.41,0.4v1.13l0.82,0.08v-1.21C90.55,63.34,90.36,63.16,90.14,63.16z"/>
	<path class="st15" d="M92.12,63.21c-0.23,0-0.41,0.17-0.41,0.37v1.05l0.82,0.08v-1.12C92.53,63.38,92.34,63.21,92.12,63.21z"/>
	<path class="st15" d="M94.38,63.27c-0.23,0-0.41,0.15-0.41,0.34v0.96l0.82,0.07v-1.03C94.8,63.43,94.61,63.27,94.38,63.27z"/>
	<path class="st15" d="M96.45,63.27c-0.23,0-0.41,0.15-0.41,0.34v0.96l0.82,0.07v-1.03C96.87,63.43,96.68,63.27,96.45,63.27z"/>
	<path class="st15" d="M98.36,63.68c-0.17,0-0.31,0.12-0.31,0.26v0.72l0.62,0.05v-0.77C98.67,63.79,98.53,63.68,98.36,63.68z"/>
	<path class="st15" d="M100.04,63.69c-0.17,0-0.31,0.12-0.31,0.26v0.72l0.62,0.05v-0.77C100.34,63.8,100.21,63.69,100.04,63.69z"/>
	<path class="st15" d="M107.68,64.2c-0.17,0-0.31,0.12-0.31,0.26v0.72l0.62,0.05v-0.77C107.99,64.32,107.85,64.2,107.68,64.2z"/>
	<path class="st15" d="M109.56,64.28c-0.17,0-0.31,0.12-0.31,0.26v0.72l0.62,0.05v-0.77C109.86,64.4,109.73,64.28,109.56,64.28z"/>
	<path class="st15" d="M104.78,63.77c-0.2,0-0.36,0.12-0.36,0.26v0.72l0.72,0.05v-0.77C105.14,63.88,104.98,63.77,104.78,63.77z"/>
	<path class="st15" d="M100.28,59.39c-0.23,0-0.41,0.14-0.41,0.31v0.86l0.82,0.06V59.7C100.69,59.53,100.51,59.39,100.28,59.39z"/>
	<rect x="105.65" y="51.46" class="st15" width="0.91" height="0.91"/>
	<rect x="107.51" y="51.46" class="st15" width="0.91" height="0.91"/>
	<rect x="105.37" y="53.58" class="st15" width="0.91" height="0.91"/>
	<rect x="107.06" y="53.58" class="st15" width="0.91" height="0.91"/>
	<rect x="110.94" y="60.95" class="st15" width="0.54" height="0.54"/>
	<path class="st15" d="M90.89,73.01c-0.57-0.21-1.14-0.02-1.64,0.18c-0.49,0.21-1.01,0.52-1.25,1.05c-0.13,0.25-0.15,0.55-0.14,0.82
		c0.03,0.27,0.09,0.54,0.2,0.79c0.21,0.5,0.52,0.95,0.88,1.35c-0.33-0.42-0.61-0.89-0.78-1.39c-0.1-0.25-0.14-0.51-0.17-0.77
		c0.01-0.26,0.03-0.52,0.16-0.74c0.23-0.46,0.69-0.75,1.17-0.94c0.48-0.2,1.03-0.34,1.48-0.16c0.46,0.19,0.61,0.75,0.63,1.26
		c0.03,0.52-0.05,1.05-0.11,1.59c-0.04,0.26-0.06,0.54-0.16,0.76c-0.1,0.22-0.38,0.3-0.63,0.36c-0.51,0.11-1.06,0.09-1.59,0.03
		c0.53,0.09,1.07,0.15,1.61,0.07c0.14-0.02,0.27-0.06,0.4-0.11c0.13-0.05,0.26-0.16,0.33-0.29c0.13-0.26,0.16-0.54,0.2-0.8
		c0.09-0.53,0.17-1.07,0.14-1.62c-0.02-0.27-0.05-0.55-0.16-0.82C91.37,73.38,91.17,73.13,90.89,73.01z"/>
	<path class="st15" d="M88.35,82.99c-0.3-0.64-0.52-1.32-0.68-2.01c-0.08-0.34-0.16-0.69-0.2-1.04c-0.06-0.35-0.07-0.7-0.04-1.04
		c0.01-0.17,0.06-0.33,0.13-0.48c0.08-0.14,0.19-0.27,0.32-0.38c0.27-0.21,0.62-0.34,0.92-0.55c-0.33,0.15-0.68,0.23-1.01,0.42
		c-0.16,0.1-0.3,0.24-0.41,0.41c-0.09,0.17-0.16,0.35-0.2,0.54c-0.13,0.75,0.02,1.48,0.17,2.19c0.17,0.71,0.42,1.41,0.78,2.04
		c0.36,0.63,0.8,1.24,1.4,1.65C89.02,84.24,88.65,83.63,88.35,82.99z"/>
	<path class="st15" d="M90.36,89.15c-0.07,0.1-0.15,0.24-0.21,0.32c-0.02,0.03-0.03,0.04-0.05,0.06c-0.03-0.04-0.07-0.13-0.09-0.22
		c-0.03-0.12-0.06-0.24-0.08-0.37c-0.09-0.51-0.14-1.04-0.2-1.56c-0.06-0.53-0.12-1.06-0.21-1.59c-0.08,0.53-0.12,1.07-0.12,1.61
		c0,0.54,0.02,1.07,0.11,1.62c0.03,0.14,0.05,0.27,0.1,0.41c0.05,0.14,0.07,0.28,0.24,0.45c0.03,0.02,0.05,0.04,0.09,0.06
		c0.04,0.01,0.09,0.02,0.13,0.03c0.08,0,0.17-0.04,0.2-0.07c0.05-0.03,0.08-0.07,0.11-0.1c0.03-0.03,0.06-0.07,0.07-0.1
		c0.09-0.14,0.13-0.24,0.19-0.37c0.22-0.49,0.46-0.99,0.49-1.54c-0.08,0.25-0.22,0.48-0.36,0.7L90.36,89.15z"/>
	<path class="st15" d="M108.31,79.83c-0.05-0.07-0.11-0.13-0.18-0.18c-0.52-0.42-1.12-0.6-1.71-0.75c-0.6-0.15-1.19-0.22-1.77-0.31
		c-0.58-0.1-1.17-0.19-1.68-0.42c-0.51-0.22-0.94-0.63-1.37-1.03l-1.28-1.25c-0.43-0.41-0.88-0.82-1.39-1.15
		c-0.51-0.33-1.07-0.59-1.68-0.67c-0.3-0.04-0.61-0.04-0.9,0.03c-0.3,0.06-0.56,0.21-0.84,0.31c0.29-0.09,0.56-0.22,0.85-0.25
		c0.29-0.05,0.59-0.03,0.87,0.02c0.58,0.11,1.1,0.39,1.58,0.73c0.48,0.34,0.91,0.74,1.32,1.17l1.24,1.29
		c0.41,0.42,0.86,0.88,1.44,1.14c0.58,0.26,1.18,0.36,1.77,0.47c0.59,0.11,1.18,0.18,1.74,0.33c0.56,0.14,1.12,0.34,1.53,0.68
		c0.2,0.17,0.34,0.38,0.31,0.58c-0.02,0.2-0.2,0.4-0.42,0.55c-0.46,0.3-1.02,0.44-1.6,0.6c-0.29,0.08-0.58,0.17-0.87,0.27
		c-0.29,0.1-0.59,0.25-0.84,0.42c-0.5,0.35-0.97,0.69-1.47,1.01c-0.25,0.16-0.5,0.32-0.75,0.46c-0.25,0.14-0.52,0.28-0.76,0.26
		c-0.24-0.01-0.5-0.2-0.75-0.34c-0.26-0.15-0.52-0.3-0.8-0.42c-0.55-0.25-1.11-0.45-1.68-0.64c-0.28-0.1-0.57-0.19-0.85-0.27
		c-0.29-0.07-0.58-0.17-0.88-0.15c0.3,0,0.58,0.12,0.86,0.21c0.28,0.1,0.56,0.2,0.83,0.31c0.55,0.23,1.1,0.45,1.62,0.72
		c0.26,0.13,0.52,0.28,0.77,0.44c0.25,0.14,0.49,0.35,0.85,0.4c0.36,0.03,0.66-0.13,0.92-0.27c0.27-0.14,0.53-0.3,0.78-0.45
		c0.51-0.3,1.02-0.65,1.5-0.98c0.46-0.33,1.03-0.46,1.6-0.62c0.56-0.16,1.18-0.29,1.73-0.64c0.26-0.18,0.54-0.44,0.6-0.84
		c0.03-0.19-0.02-0.4-0.11-0.55C108.43,79.96,108.37,79.9,108.31,79.83z"/>
	<path class="st15" d="M99.47,84.69c-0.28-0.24-0.59-0.42-0.89-0.59c-0.31-0.16-0.62-0.31-0.88-0.54c0.19,0.3,0.5,0.5,0.77,0.72
		c0.28,0.21,0.55,0.41,0.78,0.65c0.23,0.24,0.39,0.51,0.46,0.81c0.07,0.3,0.09,0.63-0.01,0.91c-0.08,0.28-0.3,0.5-0.54,0.54
		c-0.12,0.02-0.24-0.01-0.34-0.09c-0.11-0.09-0.22-0.22-0.33-0.35c-0.42-0.53-0.8-1.11-1.2-1.69c0.25,0.66,0.53,1.29,0.93,1.89
		c0.11,0.15,0.21,0.3,0.36,0.43c0.16,0.15,0.4,0.24,0.62,0.21c0.46-0.05,0.78-0.43,0.9-0.8c0.12-0.39,0.1-0.78-0.01-1.15
		C99.98,85.26,99.75,84.92,99.47,84.69z"/>
	<path class="st15" d="M96.63,87.17c-0.07,0.02-0.11,0-0.17-0.04c-0.12-0.1-0.23-0.3-0.32-0.49c-0.09-0.19-0.18-0.41-0.29-0.62
		c-0.24-0.41-0.56-0.79-0.95-1.06c-0.39-0.27-0.85-0.46-1.32-0.45c0.85,0.35,1.47,0.98,1.89,1.72c0.22,0.35,0.34,0.85,0.81,1.18
		c0.13,0.08,0.33,0.1,0.47,0.02c0.13-0.08,0.2-0.19,0.27-0.29c0.12-0.21,0.17-0.43,0.26-0.64c-0.17,0.16-0.28,0.37-0.43,0.52
		C96.78,87.08,96.7,87.15,96.63,87.17z"/>
	<path class="st15" d="M94.91,86.09c-0.03,0.06-0.07,0.09-0.12,0.1c-0.11,0.01-0.24-0.01-0.37-0.05c-0.13-0.03-0.27-0.08-0.41-0.11
		c-0.14-0.03-0.28-0.08-0.43-0.1c0.23,0.19,0.49,0.33,0.78,0.42c0.14,0.04,0.31,0.07,0.48,0c0.09-0.04,0.15-0.14,0.16-0.22
		c0.01-0.08-0.02-0.15,0.04-0.2C94.96,85.92,94.95,86.04,94.91,86.09z"/>
</g>
<g>
	<path class="st15" d="M157.07,115.27h-2.89l-0.6,1.92h-1.87l3.01-8.91h1.83l2.99,8.91h-1.87L157.07,115.27z M154.62,113.87h2.01
		l-0.99-3.14h-0.04L154.62,113.87z"/>
	<path class="st15" d="M163.75,112.11l-0.66-0.02c-0.27,0-0.48,0.05-0.65,0.17s-0.3,0.27-0.39,0.46v4.47h-1.78v-6.62h1.66l0.08,0.98
		c0.16-0.35,0.36-0.62,0.6-0.81c0.25-0.19,0.53-0.29,0.85-0.29c0.09,0,0.17,0.01,0.25,0.02c0.08,0.01,0.15,0.03,0.23,0.05
		L163.75,112.11z"/>
	<path class="st15" d="M166.93,108.95v1.62h1.12v1.25h-1.12v3.37c0,0.26,0.05,0.44,0.16,0.55c0.11,0.11,0.25,0.17,0.43,0.17
		c0.09,0,0.18,0,0.24-0.02c0.07-0.01,0.15-0.03,0.24-0.05l0.15,1.29c-0.18,0.06-0.35,0.11-0.52,0.14c-0.17,0.03-0.35,0.05-0.55,0.05
		c-0.62,0-1.09-0.17-1.42-0.51c-0.33-0.34-0.5-0.88-0.5-1.61v-3.38h-0.97v-1.25h0.97v-1.62H166.93z"/>
	<path class="st15" d="M171.07,117.2h-1.79v-6.62h1.79V117.2z M170.53,107.87h1.99l0.01,0.04l-1.7,1.59h-1.52L170.53,107.87z"/>
	<path class="st15" d="M175.36,115.95c0.31,0,0.56-0.09,0.74-0.28c0.18-0.19,0.28-0.43,0.28-0.74H178l0.01,0.04
		c0.02,0.67-0.23,1.23-0.75,1.68s-1.15,0.68-1.91,0.68c-0.98,0-1.74-0.31-2.27-0.94c-0.53-0.63-0.8-1.43-0.8-2.4v-0.18
		c0-0.97,0.27-1.77,0.8-2.4c0.53-0.63,1.29-0.95,2.26-0.95c0.81,0,1.46,0.23,1.95,0.7c0.49,0.47,0.73,1.08,0.72,1.84l-0.01,0.04
		h-1.63c0-0.34-0.09-0.63-0.27-0.85s-0.43-0.34-0.76-0.34c-0.46,0-0.79,0.18-0.98,0.55c-0.19,0.37-0.29,0.84-0.29,1.42v0.18
		c0,0.59,0.1,1.06,0.29,1.43S174.89,115.95,175.36,115.95z"/>
	<path class="st15" d="M183.11,116.22c-0.21,0.36-0.46,0.63-0.78,0.82c-0.31,0.19-0.68,0.29-1.1,0.29c-0.7,0-1.24-0.24-1.64-0.71
		c-0.39-0.47-0.59-1.21-0.59-2.2v-3.84h1.78v3.85c0,0.58,0.08,0.98,0.24,1.19c0.16,0.21,0.4,0.32,0.73,0.32
		c0.29,0,0.53-0.05,0.73-0.14c0.2-0.09,0.37-0.23,0.5-0.41v-4.82h1.79v6.62h-1.48L183.11,116.22z"/>
	<path class="st15" d="M188.01,117.2h-1.79v-9.55h1.79V117.2z"/>
	<path class="st15" d="M189.2,113.82c0-0.99,0.28-1.8,0.83-2.43c0.55-0.63,1.31-0.95,2.29-0.95c0.98,0,1.75,0.31,2.3,0.94
		c0.55,0.63,0.83,1.44,0.83,2.43v0.13c0,1-0.28,1.81-0.83,2.43c-0.55,0.63-1.32,0.94-2.29,0.94c-0.98,0-1.75-0.31-2.3-0.94
		c-0.55-0.63-0.83-1.44-0.83-2.43V113.82z M190.98,113.95c0,0.6,0.11,1.09,0.32,1.45c0.21,0.37,0.55,0.55,1.03,0.55
		c0.46,0,0.8-0.18,1.01-0.55c0.21-0.37,0.32-0.85,0.32-1.45v-0.13c0-0.59-0.11-1.07-0.32-1.44c-0.22-0.37-0.56-0.56-1.02-0.56
		c-0.46,0-0.8,0.19-1.01,0.56c-0.21,0.37-0.32,0.85-0.32,1.43V113.95z"/>
	<path class="st15" d="M206.98,117.2h-1.78v-7.36h-1.84v-1.37l3.62-0.32V117.2z"/>
	<path class="st15" d="M210.07,109.83c0-0.46,0.16-0.85,0.49-1.18c0.33-0.33,0.72-0.5,1.18-0.5c0.45,0,0.83,0.17,1.16,0.5
		c0.32,0.33,0.48,0.72,0.48,1.18c0,0.46-0.16,0.85-0.48,1.17s-0.71,0.48-1.16,0.48c-0.46,0-0.86-0.16-1.18-0.48
		S210.07,110.29,210.07,109.83z M210.97,109.83c0,0.22,0.08,0.4,0.23,0.54c0.15,0.14,0.33,0.22,0.54,0.22
		c0.21,0,0.38-0.07,0.53-0.21c0.14-0.14,0.21-0.33,0.21-0.54c0-0.22-0.07-0.41-0.21-0.56c-0.14-0.15-0.32-0.23-0.53-0.23
		c-0.21,0-0.39,0.08-0.54,0.23C211.05,109.43,210.97,109.61,210.97,109.83z"/>
	<path class="st15" d="M159.06,129.29l0.01,0.04c-0.13,0.99-0.53,1.74-1.19,2.26c-0.67,0.52-1.53,0.78-2.6,0.78
		c-1.03,0-1.83-0.35-2.4-1.04c-0.57-0.69-0.78-1.58-0.62-2.66l0.27-1.77c0.17-1.13,0.62-2.02,1.36-2.7
		c0.74-0.67,1.63-1.01,2.68-1.01c1.04,0,1.84,0.27,2.39,0.81c0.55,0.54,0.75,1.28,0.59,2.23l-0.02,0.04h-1.74
		c0.09-0.59,0.02-1.02-0.21-1.29c-0.23-0.27-0.64-0.4-1.22-0.4c-0.51,0-0.96,0.22-1.33,0.65c-0.38,0.44-0.61,0.99-0.72,1.66
		l-0.27,1.78c-0.11,0.71-0.03,1.28,0.22,1.7s0.66,0.63,1.23,0.63c0.51,0,0.93-0.14,1.25-0.43c0.32-0.28,0.52-0.71,0.6-1.28H159.06z"
		/>
	<path class="st15" d="M160.01,128.87c0.15-1.02,0.55-1.84,1.18-2.45s1.45-0.92,2.43-0.92c0.94,0,1.65,0.32,2.13,0.96
		c0.48,0.64,0.65,1.44,0.5,2.42l-0.02,0.13c-0.16,1.03-0.56,1.85-1.19,2.46c-0.64,0.61-1.45,0.91-2.44,0.91
		c-0.94,0-1.65-0.32-2.13-0.95s-0.64-1.44-0.49-2.42L160.01,128.87z M161.77,128.99c-0.1,0.62-0.07,1.11,0.09,1.47
		c0.16,0.36,0.48,0.53,0.95,0.53c0.44,0,0.8-0.19,1.08-0.56c0.28-0.37,0.47-0.85,0.56-1.44l0.02-0.13c0.09-0.61,0.05-1.09-0.11-1.45
		c-0.16-0.36-0.47-0.54-0.94-0.54c-0.44,0-0.81,0.19-1.09,0.57c-0.28,0.38-0.46,0.85-0.54,1.43L161.77,128.99z M164.34,122.79h1.98
		l0.01,0.04l-1.92,1.59h-1.48l-0.01-0.03L164.34,122.79z"/>
	<path class="st15" d="M167.07,128.98c0.16-1.08,0.51-1.93,1.05-2.56c0.54-0.62,1.23-0.93,2.05-0.93c0.32,0,0.6,0.07,0.85,0.22
		c0.24,0.15,0.45,0.36,0.61,0.64l0.55-3.67h1.79l-1.43,9.55h-1.52l-0.03-0.81c-0.25,0.31-0.53,0.54-0.84,0.7s-0.65,0.24-1.02,0.24
		c-0.78,0-1.36-0.3-1.73-0.91c-0.38-0.6-0.49-1.39-0.35-2.35L167.07,128.98z M168.83,129.11c-0.09,0.6-0.07,1.06,0.08,1.38
		s0.44,0.48,0.89,0.48c0.25,0,0.48-0.05,0.69-0.16c0.21-0.11,0.39-0.26,0.54-0.47l0.42-2.8c-0.09-0.21-0.22-0.37-0.4-0.49
		s-0.39-0.17-0.64-0.17c-0.42,0-0.76,0.2-1.03,0.59c-0.27,0.39-0.45,0.9-0.54,1.51L168.83,129.11z"/>
	<path class="st15" d="M175.81,132.24h-1.79l0.99-6.62h1.79L175.81,132.24z M177.04,124.03h-1.79l0.2-1.34h1.79L177.04,124.03z"/>
	<path class="st15" d="M177.5,128.98c0.16-1.09,0.51-1.94,1.05-2.56c0.54-0.62,1.23-0.93,2.06-0.93c0.36,0,0.67,0.09,0.92,0.26
		c0.26,0.18,0.47,0.42,0.62,0.74l0.28-0.88h1.54l-0.99,6.59c-0.14,0.89-0.52,1.57-1.14,2.02c-0.62,0.46-1.45,0.68-2.47,0.68
		c-0.32,0-0.67-0.05-1.03-0.14s-0.7-0.22-0.99-0.37l0.5-1.33c0.25,0.13,0.52,0.23,0.8,0.3c0.28,0.07,0.59,0.1,0.93,0.1
		c0.47,0,0.84-0.1,1.11-0.31s0.44-0.52,0.5-0.95l0.09-0.6c-0.24,0.25-0.5,0.44-0.78,0.57c-0.28,0.13-0.59,0.19-0.94,0.19
		c-0.78,0-1.36-0.3-1.74-0.91s-0.5-1.39-0.35-2.35L177.5,128.98z M179.27,129.11c-0.09,0.6-0.07,1.06,0.08,1.38
		c0.15,0.32,0.44,0.48,0.88,0.48c0.27,0,0.5-0.05,0.71-0.16s0.38-0.25,0.54-0.45l0.43-2.85c-0.09-0.21-0.22-0.37-0.39-0.48
		s-0.39-0.17-0.66-0.17c-0.42,0-0.76,0.2-1.03,0.59c-0.27,0.39-0.45,0.9-0.54,1.51L179.27,129.11z"/>
	<path class="st15" d="M184.59,128.87c0.15-1.02,0.55-1.84,1.18-2.45c0.64-0.61,1.45-0.92,2.43-0.92c0.94,0,1.65,0.32,2.13,0.96
		s0.64,1.44,0.5,2.42l-0.02,0.13c-0.16,1.03-0.56,1.85-1.19,2.46c-0.64,0.61-1.45,0.91-2.44,0.91c-0.94,0-1.65-0.32-2.13-0.95
		s-0.64-1.44-0.49-2.42L184.59,128.87z M186.35,128.99c-0.1,0.62-0.07,1.11,0.09,1.47c0.16,0.36,0.48,0.53,0.95,0.53
		c0.44,0,0.8-0.19,1.08-0.56c0.28-0.37,0.47-0.85,0.56-1.44l0.02-0.13c0.09-0.61,0.05-1.09-0.11-1.45s-0.47-0.54-0.94-0.54
		c-0.44,0-0.81,0.19-1.09,0.57c-0.28,0.38-0.46,0.85-0.54,1.43L186.35,128.99z"/>
	<path class="st15" d="M194.76,128.98c0.16-1.08,0.51-1.93,1.05-2.56c0.54-0.62,1.22-0.93,2.05-0.93c0.32,0,0.6,0.07,0.85,0.22
		c0.24,0.15,0.45,0.36,0.62,0.64l0.55-3.67h1.79l-1.43,9.55h-1.52l-0.03-0.81c-0.25,0.31-0.54,0.54-0.84,0.7
		c-0.31,0.16-0.65,0.24-1.02,0.24c-0.78,0-1.36-0.3-1.74-0.91c-0.38-0.6-0.49-1.39-0.35-2.35L194.76,128.98z M196.53,129.11
		c-0.09,0.6-0.07,1.06,0.08,1.38c0.15,0.32,0.44,0.48,0.89,0.48c0.25,0,0.49-0.05,0.7-0.16s0.39-0.26,0.54-0.47l0.42-2.8
		c-0.09-0.21-0.22-0.37-0.39-0.49c-0.17-0.12-0.39-0.17-0.64-0.17c-0.42,0-0.76,0.2-1.03,0.59c-0.27,0.39-0.45,0.9-0.54,1.51
		L196.53,129.11z"/>
	<path class="st15" d="M204.48,132.37c-0.95,0-1.66-0.31-2.15-0.92c-0.49-0.61-0.65-1.39-0.51-2.33l0.04-0.24
		c0.15-1.03,0.54-1.85,1.17-2.46c0.63-0.61,1.42-0.92,2.37-0.92c0.86,0,1.49,0.28,1.9,0.83s0.55,1.28,0.41,2.19l-0.13,0.92h-3.95
		l-0.01,0.03c-0.05,0.47,0.03,0.84,0.23,1.12s0.55,0.41,1.04,0.41c0.38,0,0.73-0.04,1.04-0.13c0.31-0.08,0.62-0.21,0.93-0.37
		l0.32,1.1c-0.3,0.22-0.69,0.4-1.16,0.54C205.52,132.29,205.01,132.37,204.48,132.37z M205.19,126.87c-0.34,0-0.63,0.13-0.87,0.37
		c-0.24,0.25-0.41,0.57-0.51,0.97l0.01,0.04h2.17l0.02-0.13c0.06-0.4,0.03-0.71-0.09-0.92
		C205.79,126.98,205.55,126.87,205.19,126.87z"/>
	<path class="st15" d="M211.44,132.24l1.33-8.91h3.11c1.05,0,1.88,0.35,2.5,1.05c0.62,0.7,0.85,1.59,0.69,2.67l-0.22,1.47
		c-0.17,1.13-0.66,2.04-1.46,2.71s-1.75,1.01-2.85,1.01H211.44z M214.35,124.7l-0.92,6.16h1.33c0.56,0,1.06-0.22,1.5-0.66
		s0.71-1,0.81-1.68l0.23-1.49c0.1-0.71,0.01-1.27-0.28-1.7c-0.29-0.42-0.73-0.64-1.33-0.64H214.35z"/>
	<path class="st15" d="M222.45,132.37c-0.95,0-1.66-0.31-2.15-0.92c-0.49-0.61-0.65-1.39-0.51-2.33l0.04-0.24
		c0.15-1.03,0.54-1.85,1.17-2.46c0.63-0.61,1.42-0.92,2.37-0.92c0.86,0,1.49,0.28,1.9,0.83s0.55,1.28,0.41,2.19l-0.13,0.92h-3.95
		l-0.01,0.03c-0.05,0.47,0.03,0.84,0.23,1.12s0.55,0.41,1.04,0.41c0.38,0,0.73-0.04,1.04-0.13c0.31-0.08,0.62-0.21,0.93-0.37
		l0.32,1.1c-0.3,0.22-0.69,0.4-1.16,0.54C223.49,132.29,222.98,132.37,222.45,132.37z M223.16,126.87c-0.34,0-0.63,0.13-0.87,0.37
		c-0.24,0.25-0.41,0.57-0.51,0.97l0.01,0.04h2.17l0.02-0.13c0.06-0.4,0.03-0.71-0.09-0.92
		C223.76,126.98,223.52,126.87,223.16,126.87z"/>
	<path class="st15" d="M226.39,128.87c0.15-1.02,0.55-1.84,1.18-2.45c0.64-0.61,1.45-0.92,2.43-0.92c0.94,0,1.65,0.32,2.13,0.96
		s0.64,1.44,0.5,2.42l-0.02,0.13c-0.16,1.03-0.56,1.85-1.19,2.46c-0.64,0.61-1.45,0.91-2.44,0.91c-0.94,0-1.65-0.32-2.13-0.95
		s-0.64-1.44-0.49-2.42L226.39,128.87z M228.15,128.99c-0.1,0.62-0.07,1.11,0.09,1.47c0.16,0.36,0.48,0.53,0.95,0.53
		c0.44,0,0.8-0.19,1.08-0.56c0.28-0.37,0.47-0.85,0.56-1.44l0.02-0.13c0.09-0.61,0.05-1.09-0.11-1.45s-0.47-0.54-0.94-0.54
		c-0.44,0-0.81,0.19-1.09,0.57c-0.28,0.38-0.46,0.85-0.54,1.43L228.15,128.99z"/>
	<path class="st15" d="M235.8,126.53c0.27-0.33,0.57-0.58,0.92-0.76c0.35-0.18,0.73-0.27,1.13-0.27c0.64,0,1.13,0.22,1.45,0.66
		c0.32,0.44,0.41,1.11,0.28,2.03l-0.61,4.06h-1.79l0.61-4.05c0.07-0.49,0.04-0.83-0.09-1.02s-0.37-0.28-0.71-0.28
		c-0.26,0-0.5,0.05-0.72,0.16c-0.22,0.1-0.41,0.25-0.57,0.43l-0.72,4.77h-1.79l0.99-6.62h1.66L235.8,126.53z"/>
	<path class="st15" d="M243.68,123.99l-0.24,1.62h1.12l-0.18,1.25h-1.13l-0.5,3.37c-0.04,0.27-0.02,0.46,0.07,0.56
		c0.09,0.1,0.22,0.16,0.4,0.16c0.09,0,0.17,0,0.25-0.02c0.08-0.01,0.16-0.03,0.25-0.05l-0.05,1.29c-0.19,0.06-0.37,0.11-0.54,0.14
		c-0.17,0.03-0.36,0.05-0.56,0.05c-0.6,0-1.04-0.17-1.33-0.51c-0.29-0.34-0.38-0.88-0.27-1.6l0.5-3.38h-0.96l0.18-1.25h0.97
		l0.24-1.62H243.68z"/>
	<path class="st15" d="M244.9,128.87c0.15-1.02,0.55-1.84,1.18-2.45c0.64-0.61,1.45-0.92,2.43-0.92c0.94,0,1.65,0.32,2.13,0.96
		s0.64,1.44,0.5,2.42l-0.02,0.13c-0.16,1.03-0.56,1.85-1.19,2.46c-0.64,0.61-1.45,0.91-2.44,0.91c-0.94,0-1.65-0.32-2.13-0.95
		s-0.64-1.44-0.49-2.42L244.9,128.87z M246.66,128.99c-0.1,0.62-0.07,1.11,0.09,1.47c0.16,0.36,0.48,0.53,0.95,0.53
		c0.44,0,0.8-0.19,1.08-0.56c0.28-0.37,0.47-0.85,0.56-1.44l0.02-0.13c0.09-0.61,0.05-1.09-0.11-1.45s-0.47-0.54-0.94-0.54
		c-0.44,0-0.81,0.19-1.09,0.57c-0.28,0.38-0.46,0.85-0.54,1.43L246.66,128.99z"/>
	<path class="st15" d="M253.62,132.24h-1.79l1.43-9.55h1.79L253.62,132.24z"/>
	<path class="st15" d="M255.33,128.87c0.15-1.02,0.55-1.84,1.18-2.45c0.64-0.61,1.45-0.92,2.43-0.92c0.94,0,1.65,0.32,2.13,0.96
		s0.64,1.44,0.5,2.42l-0.02,0.13c-0.16,1.03-0.56,1.85-1.19,2.46c-0.64,0.61-1.45,0.91-2.44,0.91c-0.94,0-1.65-0.32-2.13-0.95
		s-0.64-1.44-0.49-2.42L255.33,128.87z M257.09,128.99c-0.1,0.62-0.07,1.11,0.09,1.47c0.16,0.36,0.48,0.53,0.95,0.53
		c0.44,0,0.8-0.19,1.08-0.56c0.28-0.37,0.47-0.85,0.56-1.44l0.02-0.13c0.09-0.61,0.05-1.09-0.11-1.45s-0.47-0.54-0.94-0.54
		c-0.44,0-0.81,0.19-1.09,0.57c-0.28,0.38-0.46,0.85-0.54,1.43L257.09,128.99z"/>
	<path class="st15" d="M262.39,128.98c0.16-1.09,0.51-1.94,1.05-2.56c0.54-0.62,1.23-0.93,2.06-0.93c0.36,0,0.67,0.09,0.92,0.26
		c0.26,0.18,0.46,0.42,0.62,0.74l0.28-0.88h1.54l-0.99,6.59c-0.14,0.89-0.52,1.57-1.14,2.02c-0.62,0.46-1.45,0.68-2.47,0.68
		c-0.32,0-0.67-0.05-1.03-0.14s-0.7-0.22-0.99-0.37l0.5-1.33c0.25,0.13,0.52,0.23,0.8,0.3s0.59,0.1,0.93,0.1
		c0.47,0,0.84-0.1,1.11-0.31s0.44-0.52,0.5-0.95l0.09-0.6c-0.24,0.25-0.5,0.44-0.78,0.57c-0.28,0.13-0.59,0.19-0.94,0.19
		c-0.78,0-1.36-0.3-1.74-0.91s-0.5-1.39-0.35-2.35L262.39,128.98z M264.16,129.11c-0.09,0.6-0.07,1.06,0.08,1.38
		s0.44,0.48,0.88,0.48c0.26,0,0.5-0.05,0.71-0.16s0.38-0.25,0.54-0.45l0.43-2.85c-0.09-0.21-0.21-0.37-0.39-0.48
		s-0.39-0.17-0.66-0.17c-0.42,0-0.76,0.2-1.03,0.59c-0.27,0.39-0.45,0.9-0.54,1.51L264.16,129.11z"/>
	<path class="st15" d="M271.16,132.24h-1.79l0.99-6.62h1.79L271.16,132.24z M271.97,122.92h1.98l0.01,0.04l-1.92,1.59h-1.48
		l-0.01-0.03L271.97,122.92z"/>
	<path class="st15" d="M276.59,132.24c-0.04-0.15-0.08-0.31-0.1-0.48s-0.03-0.34-0.02-0.52c-0.23,0.33-0.52,0.6-0.85,0.81
		c-0.33,0.21-0.71,0.32-1.12,0.32c-0.67,0-1.17-0.18-1.51-0.54s-0.46-0.85-0.36-1.45c0.1-0.67,0.42-1.18,0.97-1.53
		c0.55-0.35,1.31-0.52,2.28-0.52h1l0.08-0.53c0.05-0.33,0-0.58-0.14-0.75c-0.14-0.17-0.38-0.25-0.71-0.25
		c-0.28,0-0.51,0.07-0.69,0.21s-0.29,0.33-0.33,0.58h-1.72l-0.01-0.04c0.06-0.58,0.38-1.07,0.95-1.46s1.27-0.59,2.12-0.59
		c0.77,0,1.37,0.2,1.82,0.61c0.45,0.4,0.61,0.98,0.5,1.71l-0.41,2.74c-0.05,0.32-0.07,0.62-0.06,0.88c0.01,0.26,0.04,0.53,0.1,0.81
		H276.59z M275.13,131.04c0.3,0,0.58-0.08,0.86-0.24c0.27-0.16,0.47-0.34,0.59-0.54l0.14-0.93h-1c-0.36,0-0.66,0.1-0.89,0.29
		c-0.23,0.19-0.37,0.42-0.41,0.69c-0.04,0.23,0.01,0.41,0.13,0.54C274.68,130.98,274.87,131.04,275.13,131.04z"/>
	<path class="st15" d="M290.43,128.58c-0.18,1.14-0.66,2.05-1.44,2.75s-1.74,1.04-2.86,1.04c-1.06,0-1.88-0.36-2.49-1.08
		c-0.6-0.72-0.82-1.62-0.65-2.7l0.24-1.6c0.17-1.13,0.64-2.04,1.42-2.74c0.78-0.7,1.73-1.04,2.84-1.04c1.06,0,1.9,0.36,2.5,1.09
		c0.6,0.72,0.83,1.62,0.67,2.7L290.43,128.58z M288.89,126.97c0.11-0.72,0.02-1.29-0.26-1.73s-0.73-0.65-1.34-0.65
		c-0.58,0-1.08,0.22-1.5,0.67s-0.67,1.02-0.77,1.7l-0.24,1.62c-0.11,0.73-0.03,1.31,0.24,1.74c0.27,0.43,0.71,0.65,1.33,0.65
		c0.59,0,1.09-0.22,1.51-0.67c0.42-0.45,0.69-1.02,0.8-1.72L288.89,126.97z"/>
	<path class="st15" d="M291.38,128.98c0.16-1.08,0.51-1.93,1.05-2.56c0.54-0.62,1.22-0.93,2.05-0.93c0.32,0,0.6,0.07,0.85,0.22
		c0.24,0.15,0.45,0.36,0.62,0.64l0.55-3.67h1.79l-1.43,9.55h-1.52l-0.03-0.81c-0.25,0.31-0.54,0.54-0.84,0.7
		c-0.31,0.16-0.65,0.24-1.02,0.24c-0.78,0-1.36-0.3-1.74-0.91c-0.38-0.6-0.49-1.39-0.35-2.35L291.38,128.98z M293.14,129.11
		c-0.09,0.6-0.07,1.06,0.08,1.38c0.15,0.32,0.44,0.48,0.89,0.48c0.25,0,0.49-0.05,0.7-0.16s0.39-0.26,0.54-0.47l0.42-2.8
		c-0.09-0.21-0.22-0.37-0.39-0.49c-0.17-0.12-0.39-0.17-0.64-0.17c-0.42,0-0.76,0.2-1.03,0.59c-0.27,0.39-0.45,0.9-0.54,1.51
		L293.14,129.11z"/>
	<path class="st15" d="M298.47,128.87c0.15-1.02,0.55-1.84,1.18-2.45c0.64-0.61,1.45-0.92,2.43-0.92c0.94,0,1.65,0.32,2.13,0.96
		s0.64,1.44,0.5,2.42l-0.02,0.13c-0.16,1.03-0.56,1.85-1.19,2.46c-0.64,0.61-1.45,0.91-2.44,0.91c-0.94,0-1.65-0.32-2.13-0.95
		s-0.64-1.44-0.49-2.42L298.47,128.87z M300.23,128.99c-0.1,0.62-0.07,1.11,0.09,1.47c0.16,0.36,0.48,0.53,0.95,0.53
		c0.44,0,0.8-0.19,1.08-0.56c0.28-0.37,0.47-0.85,0.56-1.44l0.02-0.13c0.09-0.61,0.05-1.09-0.11-1.45s-0.47-0.54-0.94-0.54
		c-0.44,0-0.81,0.19-1.09,0.57c-0.28,0.38-0.46,0.85-0.54,1.43L300.23,128.99z"/>
	<path class="st15" d="M307.88,126.53c0.27-0.33,0.57-0.58,0.92-0.76c0.35-0.18,0.73-0.27,1.13-0.27c0.64,0,1.13,0.22,1.45,0.66
		c0.32,0.44,0.41,1.11,0.28,2.03l-0.61,4.06h-1.79l0.61-4.05c0.07-0.49,0.04-0.83-0.09-1.02s-0.37-0.28-0.71-0.28
		c-0.26,0-0.5,0.05-0.72,0.16c-0.22,0.1-0.41,0.25-0.57,0.43l-0.72,4.77h-1.79l0.99-6.62h1.66L307.88,126.53z"/>
	<path class="st15" d="M315.77,123.99l-0.24,1.62h1.12l-0.18,1.25h-1.13l-0.5,3.37c-0.04,0.27-0.02,0.46,0.07,0.56
		c0.09,0.1,0.22,0.16,0.4,0.16c0.09,0,0.17,0,0.25-0.02c0.08-0.01,0.16-0.03,0.25-0.05l-0.05,1.29c-0.19,0.06-0.37,0.11-0.54,0.14
		c-0.17,0.03-0.36,0.05-0.56,0.05c-0.6,0-1.04-0.17-1.33-0.51c-0.29-0.34-0.38-0.88-0.27-1.6l0.5-3.38h-0.96l0.18-1.25h0.97
		l0.24-1.62H315.77z"/>
	<path class="st15" d="M316.99,128.87c0.15-1.02,0.55-1.84,1.18-2.45c0.64-0.61,1.45-0.92,2.43-0.92c0.94,0,1.65,0.32,2.13,0.96
		s0.64,1.44,0.5,2.42l-0.02,0.13c-0.16,1.03-0.56,1.85-1.19,2.46c-0.64,0.61-1.45,0.91-2.44,0.91c-0.94,0-1.65-0.32-2.13-0.95
		s-0.64-1.44-0.49-2.42L316.99,128.87z M318.75,128.99c-0.1,0.62-0.07,1.11,0.09,1.47c0.16,0.36,0.48,0.53,0.95,0.53
		c0.44,0,0.8-0.19,1.08-0.56c0.28-0.37,0.47-0.85,0.56-1.44l0.02-0.13c0.09-0.61,0.05-1.09-0.11-1.45s-0.47-0.54-0.94-0.54
		c-0.44,0-0.81,0.19-1.09,0.57c-0.28,0.38-0.46,0.85-0.54,1.43L318.75,128.99z"/>
	<path class="st15" d="M325.71,132.24h-1.79l1.43-9.55h1.79L325.71,132.24z"/>
	<path class="st15" d="M327.41,128.87c0.15-1.02,0.55-1.84,1.18-2.45c0.64-0.61,1.45-0.92,2.43-0.92c0.94,0,1.65,0.32,2.13,0.96
		s0.64,1.44,0.5,2.42l-0.02,0.13c-0.16,1.03-0.56,1.85-1.19,2.46c-0.64,0.61-1.45,0.91-2.44,0.91c-0.94,0-1.65-0.32-2.13-0.95
		s-0.64-1.44-0.49-2.42L327.41,128.87z M329.17,128.99c-0.1,0.62-0.07,1.11,0.09,1.47c0.16,0.36,0.48,0.53,0.95,0.53
		c0.44,0,0.8-0.19,1.08-0.56c0.28-0.37,0.47-0.85,0.56-1.44l0.02-0.13c0.09-0.61,0.05-1.09-0.11-1.45s-0.47-0.54-0.94-0.54
		c-0.44,0-0.81,0.19-1.09,0.57c-0.28,0.38-0.46,0.85-0.54,1.43L329.17,128.99z M331.74,122.79h1.98l0.01,0.04l-1.92,1.59h-1.48
		l-0.01-0.03L331.74,122.79z"/>
	<path class="st15" d="M334.48,128.98c0.16-1.09,0.51-1.94,1.05-2.56c0.54-0.62,1.23-0.93,2.06-0.93c0.36,0,0.67,0.09,0.92,0.26
		c0.26,0.18,0.46,0.42,0.62,0.74l0.28-0.88h1.54l-0.99,6.59c-0.14,0.89-0.52,1.57-1.14,2.02c-0.62,0.46-1.45,0.68-2.47,0.68
		c-0.32,0-0.67-0.05-1.03-0.14s-0.7-0.22-0.99-0.37l0.5-1.33c0.25,0.13,0.52,0.23,0.8,0.3s0.59,0.1,0.93,0.1
		c0.47,0,0.84-0.1,1.11-0.31s0.44-0.52,0.5-0.95l0.09-0.6c-0.24,0.25-0.5,0.44-0.78,0.57c-0.28,0.13-0.59,0.19-0.94,0.19
		c-0.78,0-1.36-0.3-1.74-0.91s-0.5-1.39-0.35-2.35L334.48,128.98z M336.25,129.11c-0.09,0.6-0.07,1.06,0.08,1.38
		s0.44,0.48,0.88,0.48c0.26,0,0.5-0.05,0.71-0.16s0.38-0.25,0.54-0.45l0.43-2.85c-0.09-0.21-0.21-0.37-0.39-0.48
		s-0.39-0.17-0.66-0.17c-0.42,0-0.76,0.2-1.03,0.59c-0.27,0.39-0.45,0.9-0.54,1.51L336.25,129.11z"/>
	<path class="st15" d="M343.21,132.24h-1.79l0.99-6.62h1.79L343.21,132.24z M344.44,124.03h-1.79l0.2-1.34h1.79L344.44,124.03z"/>
	<path class="st15" d="M347.63,131c0.3,0,0.56-0.09,0.77-0.28c0.22-0.19,0.35-0.43,0.4-0.74h1.62l0.01,0.04
		c-0.09,0.69-0.42,1.26-1,1.7s-1.25,0.66-2.02,0.66c-0.94,0-1.64-0.32-2.1-0.95s-0.62-1.43-0.47-2.39l0.02-0.18
		c0.15-1.01,0.54-1.82,1.16-2.43s1.42-0.92,2.41-0.92c0.78,0,1.39,0.23,1.83,0.7c0.44,0.47,0.59,1.08,0.46,1.84l-0.01,0.03h-1.63
		c0.05-0.35,0.01-0.64-0.14-0.86c-0.14-0.22-0.38-0.33-0.71-0.33c-0.44,0-0.8,0.19-1.06,0.56c-0.26,0.38-0.43,0.84-0.52,1.41
		l-0.02,0.18c-0.09,0.61-0.07,1.09,0.07,1.44C346.85,130.82,347.15,131,347.63,131z"/>
	<path class="st15" d="M355.05,132.24c-0.04-0.15-0.08-0.31-0.1-0.48s-0.03-0.34-0.02-0.52c-0.23,0.33-0.52,0.6-0.85,0.81
		c-0.33,0.21-0.71,0.32-1.12,0.32c-0.67,0-1.17-0.18-1.51-0.54s-0.46-0.85-0.36-1.45c0.1-0.67,0.42-1.18,0.97-1.53
		c0.55-0.35,1.31-0.52,2.28-0.52h1l0.08-0.53c0.05-0.33,0-0.58-0.14-0.75c-0.14-0.17-0.38-0.25-0.71-0.25
		c-0.28,0-0.51,0.07-0.69,0.21s-0.29,0.33-0.33,0.58h-1.72l-0.01-0.04c0.06-0.58,0.38-1.07,0.95-1.46s1.27-0.59,2.12-0.59
		c0.77,0,1.37,0.2,1.82,0.61c0.45,0.4,0.61,0.98,0.5,1.71l-0.41,2.74c-0.05,0.32-0.07,0.62-0.06,0.88c0.01,0.26,0.04,0.53,0.1,0.81
		H355.05z M353.59,131.04c0.3,0,0.58-0.08,0.86-0.24c0.27-0.16,0.47-0.34,0.59-0.54l0.14-0.93h-1c-0.36,0-0.66,0.1-0.89,0.29
		c-0.23,0.19-0.37,0.42-0.41,0.69c-0.04,0.23,0.01,0.41,0.13,0.54C353.14,130.98,353.33,131.04,353.59,131.04z"/>
</g>
</svg>
