<?xml version="1.0" encoding="utf-8"?>
<!-- Generator: Adobe Illustrator 16.0.3, SVG Export Plug-In . SVG Version: 6.00 Build 0)  -->
<!DOCTYPE svg PUBLIC "-//W3C//DTD SVG 1.1//EN" "http://www.w3.org/Graphics/SVG/1.1/DTD/svg11.dtd">
<svg version="1.1" id="Layer_1" xmlns="http://www.w3.org/2000/svg" xmlns:xlink="http://www.w3.org/1999/xlink" x="0px" y="0px"
	 width="586.32px" height="586.32px" viewBox="0 0 586.32 586.32" enable-background="new 0 0 586.32 586.32" xml:space="preserve">
<g>
	<defs>
		<rect id="SVGID_1_" width="586.32" height="586.32"/>
	</defs>
	<clipPath id="SVGID_2_">
		<use xlink:href="#SVGID_1_"  overflow="visible"/>
	</clipPath>
	<g clip-path="url(#SVGID_2_)">
		<path fill-rule="evenodd" clip-rule="evenodd" fill="#3D3C3E" d="M299.04,587.04c-3.521,0-7.04,0-10.56,0
			c-2.259-0.551-4.553-0.097-6.824-0.242c-23.124-0.048-45.623-4.215-67.817-10.353c-18.644-5.156-36.538-12.28-53.722-21.11
			c-21.14-10.862-40.738-24.051-58.665-39.702c-21.218-18.527-39.592-39.512-54.813-63.221
			c-12.582-19.6-22.676-40.415-30.338-62.421c-6.813-19.567-11.404-39.64-14.004-60.175c-0.833-6.577-1.375-13.184-1.359-19.829
			c0.006-2.53-0.062-5.073-0.458-7.587c0-5.12,0-10.24,0-15.36c0.372-3.533,0.491-7.076,0.48-10.624
			c0.084-12.116,1.868-24.047,3.981-35.939c3.739-21.039,9.883-41.37,18.198-61.04c11.799-27.914,27.522-53.415,47.239-76.441
			C75.998,96.434,81.778,90.021,87.977,84c15.657-15.21,32.677-28.673,51.227-40.213c21.245-13.217,43.836-23.452,67.701-30.894
			c17.687-5.515,35.734-9.346,54.17-11.302c6.841-0.726,13.703-0.881,20.576-0.868c2.437-0.132,4.889,0.282,7.31-0.243
			c3.36,0,6.72,0,10.08,0c2.412,0.525,4.856,0.111,7.28,0.243c22.013-0.304,43.437,3.55,64.592,9.232
			c19.609,5.267,38.469,12.527,56.544,21.766c20.596,10.526,39.708,23.292,57.275,38.359c6.861,5.885,13.559,11.946,19.826,18.461
			c18.67,19.411,34.649,40.799,47.544,64.487c8.785,16.14,16.025,32.929,21.68,50.393c5.979,18.466,10.064,37.354,12.148,56.668
			c0.755,7.002,0.883,14.021,0.867,21.052c0.146,2.286-0.308,4.59,0.243,6.859c0,3.68,0,7.36,0,11.04
			c-0.551,2.259-0.098,4.553-0.243,6.823c0.447,23.743-4.023,46.761-10.436,69.464c-4.904,17.365-11.486,34.12-19.628,50.207
			c-11.096,21.924-24.648,42.238-40.834,60.778c-21.868,25.051-47.127,45.976-75.979,62.492
			c-31.071,17.787-64.314,29.514-99.696,35.104c-9.16,1.447-18.338,2.697-27.647,2.695c-2.064-0.001-4.143,0.193-6.221,0.192
			C303.917,586.929,301.463,586.514,299.04,587.04z"/>
		<path fill-rule="evenodd" clip-rule="evenodd" fill="#FFFFFF" d="M0.48,302.4c0.675,2.146,0.699,4.394,0.809,6.592
			c1.199,24.123,5.201,47.771,12.498,70.786c23.044,72.685,67.538,128.441,133.033,167.361
			c27.173,16.147,56.453,27.072,87.384,33.542c12.681,2.651,25.501,4.365,38.418,5.347c2.869,0.218,5.743,0.388,8.614,0.579
			c0.198,0.077,0.27,0.167,0.217,0.27c-0.056,0.108-0.113,0.163-0.174,0.163c-93.6,0-187.2,0-280.8,0
			C0.48,492.16,0.48,397.28,0.48,302.4z"/>
		<path fill-rule="evenodd" clip-rule="evenodd" fill="#FFFFFF" d="M281.218,0.888c-25.863,0.879-51.101,5.426-75.739,13.234
			C127.635,38.788,63.361,95.11,28.647,168.946c-10.758,22.881-18.44,46.748-22.963,71.63c-1.814,9.982-3.188,20.018-3.876,30.144
			c-0.119,1.753-0.285,3.503-0.429,5.255c-0.378,1.061-0.077,2.161-0.191,3.235c-0.05,0.467,0.235,1.195-0.708,1.11
			c0-93.28,0-186.56,0-279.84c93.6,0,187.2,0,280.8,0c0.181,0.12,0.231,0.22,0.153,0.301C281.365,0.852,281.293,0.888,281.218,0.888
			z"/>
		<path fill-rule="evenodd" clip-rule="evenodd" fill="#FFFFFF" d="M306.763,586.606c7.327-0.603,14.664-1.031,21.974-1.89
			c13.269-1.558,26.368-3.982,39.279-7.368c39.039-10.236,74.534-27.715,106.302-52.615c39.419-30.897,69.114-69.362,89.052-115.319
			c9.321-21.485,15.818-43.821,19.715-66.906c1.447-8.578,2.489-17.214,3.143-25.899c0.259-3.436,0.243-6.869,0.42-10.3
			c0.084-0.293,0.216-0.315,0.394-0.068c0,93.601,0,187.2,0,280.8c-93.44,0-186.88,0-280.32,0c-0.179-0.114-0.231-0.217-0.159-0.308
			C306.627,586.648,306.694,586.606,306.763,586.606z"/>
		<path fill-rule="evenodd" clip-rule="evenodd" fill="#FFFFFF" d="M586.634,280.741c-1.207-37.606-9.997-73.44-25.41-107.678
			c-15.917-35.357-38.072-66.323-66.334-92.854c-36.276-34.054-78.479-57.494-126.626-70.186
			c-13.069-3.445-26.319-5.922-39.733-7.501c-7.222-0.851-14.464-1.563-21.748-1.634c-0.208-0.061-0.286-0.141-0.236-0.242
			c0.056-0.11,0.113-0.165,0.174-0.165c93.44,0,186.88,0,280.32,0c0,93.44,0,186.88,0,280.32
			C586.864,281.055,586.73,281.021,586.634,280.741z"/>
		<path fill-rule="evenodd" clip-rule="evenodd" fill="#B0B2B5" d="M0.48,280.32c0.909-1.322,0.117-2.997,0.899-4.345
			c0.072,3.719,0.007,7.426-0.899,11.065C0.48,284.8,0.48,282.56,0.48,280.32z"/>
		<path fill-rule="evenodd" clip-rule="evenodd" fill="#949799" d="M281.218,0.888c0.042-0.133,0.063-0.269,0.062-0.408
			c2.56,0,5.12,0,7.68,0C286.413,1.247,283.814,1.054,281.218,0.888z"/>
		<path fill-rule="evenodd" clip-rule="evenodd" fill="#949699" d="M306.72,0.48c-0.001,0.139,0.02,0.275,0.063,0.407
			c-2.597,0.167-5.194,0.355-7.742-0.407C301.6,0.48,304.16,0.48,306.72,0.48z"/>
		<path fill-rule="evenodd" clip-rule="evenodd" fill="#949699" d="M306.763,586.606c-0.035,0.143-0.049,0.287-0.043,0.434
			c-2.56,0-5.12,0-7.68,0C301.578,586.259,304.174,586.496,306.763,586.606z"/>
		<path fill-rule="evenodd" clip-rule="evenodd" fill="#9A9C9F" d="M586.634,280.741c0.146-0.056,0.281-0.036,0.406,0.059
			c0,2.4,0,4.8,0,7.2C586.218,285.619,586.522,283.174,586.634,280.741z"/>
		<path fill-rule="evenodd" clip-rule="evenodd" fill="#9B9D9F" d="M587.04,306.24l-0.18,0.135l-0.214-0.066
			c-0.156-2.438-0.375-4.88,0.394-7.269C587.04,301.44,587.04,303.84,587.04,306.24z"/>
		<path fill-rule="evenodd" clip-rule="evenodd" fill="#949699" d="M281.28,587.04c0.005-0.146-0.01-0.29-0.043-0.433
			c2.427-0.074,4.871-0.418,7.244,0.433C286.08,587.04,283.68,587.04,281.28,587.04z"/>
		<path fill-rule="evenodd" clip-rule="evenodd" fill="#FFFFFF" d="M364.345,455.159c-15.064,0.096-29.333-0.897-43.504-3.053
			c-33.875-5.15-65.384-16.635-94.155-35.396c-14.46-9.429-27.755-20.282-39.745-32.694c-17.855-18.483-31.8-39.585-41.9-63.219
			c-8.021-18.769-13.298-38.306-16.519-58.444c-2.763-17.279-3.75-34.651-3.127-52.12c0.296-8.312,0.987-16.602,2.015-24.856
			c1.656-13.301,7.016-25.026,15.52-35.3c10.289-12.43,23.202-20.876,38.832-25.085c4.964-1.337,10.057-1.836,15.137-2.418
			c7.227-0.827,14.456-1.627,21.685-2.437c0.238-0.027,0.479-0.038,0.717-0.06c4.869-0.464,6.672,0.88,7.75,5.678
			c5.345,23.786,10.704,47.568,16.056,71.352c0.246,1.091,0.503,2.181,0.709,3.28c0.56,2.99-0.202,5.527-2.569,7.539
			c-3.235,2.749-6.797,5.05-10.244,7.504c-9.567,6.814-19.203,13.532-28.775,20.338c-5.548,3.945-6.296,6.438-4.256,12.919
			c5.137,16.318,12.099,31.793,21.157,46.325c8.975,14.398,19.655,27.397,31.853,39.164c16.707,16.116,35.443,29.316,56.491,39.169
			c8.839,4.138,17.945,7.593,27.286,10.422c1.221,0.37,2.474,0.649,3.727,0.896c2.544,0.501,4.772-0.16,6.552-2.057
			c1.146-1.223,2.256-2.492,3.261-3.831c8.065-10.743,16.1-21.512,24.15-32.266c1.054-1.408,2.157-2.779,3.231-4.173
			c2.351-3.048,5.373-4.061,9.127-3.191c7.396,1.711,14.808,3.354,22.214,5.019c17.697,3.977,35.396,7.948,53.094,11.921
			c0.156,0.035,0.315,0.058,0.472,0.093c4.497,1.016,5.539,2.312,5.011,6.798c-1.282,10.872-2.136,21.793-4.216,32.57
			c-3.835,19.867-14.661,34.957-31.195,46.199c-7.824,5.319-16.401,8.906-25.687,10.773c-3.851,0.774-7.765,1.073-11.662,1.398
			C383.117,454.725,373.38,455.276,364.345,455.159z"/>
	</g>
</g>
</svg>
