<?xml version="1.0" encoding="utf-8"?>
<!-- Generator: Adobe Illustrator 22.1.0, SVG Export Plug-In . SVG Version: 6.00 Build 0)  -->
<svg version="1.1" id="BOTON_START" xmlns="http://www.w3.org/2000/svg" xmlns:xlink="http://www.w3.org/1999/xlink" x="0px"
	 y="0px" viewBox="0 0 497 187" style="enable-background:new 0 0 497 187;" xml:space="preserve">
<style type="text/css">
	.st0{fill:#FFFFFF;}
	.st1{fill:#9A9A9A;}
	.st2{font-family:'Roboto-Bold';}
	.st3{font-size:257.6px;}
	.st4{font-size:76.4528px;}
</style>
<path id="Rounded_Rectangle_2" class="st0" d="M10-0.4h477c5.5,0,10,4.5,10,10v167c0,5.5-4.5,10-10,10H10c-5.5,0-10-4.5-10-10V9.6
	C0,4,4.5-0.4,10-0.4z"/>
<text transform="matrix(0.7876 0 0 1 92.626 184.7793)" class="st1 st2 st3">S</text>
<text transform="matrix(0.9968 0 0 1 218.8525 121.6553)" class="st1 st2 st4">TART</text>
</svg>
