<?xml version="1.0" standalone="no"?>
<!DOCTYPE svg PUBLIC "-//W3C//DTD SVG 1.1//EN" "http://www.w3.org/Graphics/SVG/1.1/DTD/svg11.dtd" >
<svg xmlns="http://www.w3.org/2000/svg">
<metadata>Generated by IcoMoon</metadata>
<defs>
<font id="icomoon" horiz-adv-x="1024">
<font-face units-per-em="1024" ascent="960" descent="-64" />
<missing-glyph horiz-adv-x="1024" />
<glyph unicode="&#x20;" horiz-adv-x="512" d="" />
<glyph unicode="&#xe702;" glyph-name="Whatsapp2" d="M747.52 322.116c0.591-3.094 0.928-6.652 0.928-10.289 0-8.513-1.851-16.594-5.171-23.862l0.147 0.359c-17.335-34.936-50.233-59.891-89.373-65.929l-0.671-0.085c-36.113-6.827-65.809 4.437-99.191 15.428-32.857 11.252-61.259 25.032-87.618 41.744l1.67-0.989c-53.982 33.42-99.328 75.254-135.613 124.208l-0.921 1.3c-11.332 15.258-21.879 31.095-31.642 47.309-12.606 19.833-22.889 42.76-29.647 67.153l-0.425 1.797c-2.386 9.214-3.755 19.792-3.755 30.69 0 0.143 0 0.285 0.001 0.427v-0.022c-0.046 1.259-0.072 2.738-0.072 4.222 0 37.474 16.71 71.046 43.085 93.67l0.166 0.139c10.081 8.829 23.372 14.215 37.92 14.215 8.623 0 16.804-1.892 24.151-5.284l-0.358 0.148c20.89-11.776 31.642-40.96 41.404-61.781 8.316-14.404 13.222-31.681 13.222-50.105 0-1.934-0.054-3.856-0.161-5.763l0.012 0.265c-5.719-18.836-15.923-34.874-29.395-47.457l-0.062-0.057c-4.101-3.533-6.682-8.732-6.682-14.535 0-4.616 1.633-8.85 4.353-12.157l-0.026 0.033c37.127-61.382 92.494-108.506 158.517-134.413l2.183-0.755c2.541-1.441 5.58-2.29 8.818-2.29 5.768 0 10.907 2.695 14.227 6.894l0.029 0.038c12.083 14.677 23.893 43.247 42.359 50.79 23.893 9.66 50.586-3.857 71.1-15.838s50.961-25.737 56.491-49.22zM511.659 953.617c-0.254 0-0.555 0.001-0.857 0.001-279.565 0-506.197-226.632-506.197-506.197 0-90.223 23.604-174.934 64.975-248.292l-1.313 2.532-58.641-219.204c11.162-14.575 22.938-28.501 35.499-42.052l225.587 59.767c69.679-38.402 152.727-60.996 241.053-60.996 279.904 0 506.812 226.907 506.812 506.812s-226.907 506.812-506.812 506.812c-0.037 0-0.075 0-0.112 0h0.006zM511.659 35.43c-0.28-0.001-0.612-0.001-0.944-0.001-77.045 0-149.141 21.183-210.784 58.043l1.876-1.040-17.34 10.24-154.249-40.107 40.96 153.259-10.547 17.545c-37.32 60.669-59.427 134.163-59.427 212.821 0 226.876 183.919 410.795 410.795 410.795s410.795-183.919 410.795-410.795c0-226.876-183.919-410.795-410.795-410.795-0.144 0-0.287 0-0.431 0h0.022z" />
<glyph unicode="&#xe703;" glyph-name="Telegram2" d="M335.19 101.875c0 0-61.337 222.444-68.316 245.74-5.775 29.833-39.466 31.627-60.698 41.284-17.742 6.537-168.946 59.666-178.899 66.596-37.844 22.756-20.175 62.565 3.44 77.654 61.976 29.636 728.055 322.657 743.61 331.258 20.003 9.879 164.818 72.051 178.899 80.111 45.118 21.060 68.93-5.505 65.367-53.817-5.627-39.368-13.467-80.259-15.482-93.627-3.735-15.26-125.819-732.11-134.911-775.802-10.641-62.836-28.85-104.145-94.119-56.275-24.279 22.043-198.558 169.291-216.006 188.237-18.455 16.956-23.542-5.701-32.438-9.338-15.826-18.381-93.529-112.475-119.676-130.488-28.973-21.207-41.456-2.679-51.851 23.591-7.987 26.319-18.922 64.875-18.922 64.875zM435.452 339.997c0 0 289.605 306.094 291.448 307.175 6.021 6.586 87.926 93.627 99.279 107.143 12.434 9.363 2.261 35.854-17.202 20.888-11.181-8.748-482.093-355.316-491.481-362.467-10.1-8.183-15.162-15.58-12.041-30.472 1.917-9.314 74.042-265.916 75.688-271.789 3.637-13.319 7.716-8.060 8.109-3.44s17.423 174.426 18.185 179.636c2.752 21.773 11.845 35.092 16.465 40.793 3.662 4.227 11.55 12.533 11.55 12.533z" />
<glyph unicode="&#xe98f;" glyph-name="lock" d="M592 512h-16v192c0 105.87-86.13 192-192 192h-128c-105.87 0-192-86.13-192-192v-192h-16c-26.4 0-48-21.6-48-48v-480c0-26.4 21.6-48 48-48h544c26.4 0 48 21.6 48 48v480c0 26.4-21.6 48-48 48zM192 704c0 35.29 28.71 64 64 64h128c35.29 0 64-28.71 64-64v-192h-256v192z" />
</font></defs></svg>